<?xml version="1.0" encoding="UTF-8"?>
<glyph name="ch1u1" format="2">
	<advance width="1754"/>
	<outline>
		<contour>
			<point x="1888.6328125" y="-156.9637756348" type="curve" smooth="yes"/>
			<point x="1888.6328125" y="-290.6741027832"/>
			<point x="1755.8259277344" y="-361.902130127"/>
			<point x="1622.4412841797" y="-361.902130127" type="curve" smooth="yes"/>
			<point x="1497.1040039062" y="-361.902130127"/>
			<point x="1413.7572021484" y="-316.3309936523"/>
			<point x="1368" y="-231" type="curve" smooth="yes"/>
			<point x="1349.9940185547" y="-197.2797546387"/>
			<point x="1340.9910888672" y="-160.6657104492"/>
			<point x="1340.9910888672" y="-121.1929321289" type="curve" smooth="yes"/>
			<point x="1340.9910888672" y="-40.0943183899"/>
			<point x="1378.9940185547" y="53.0714302063"/>
			<point x="1455" y="158" type="curve" smooth="yes"/>
			<point x="1468.2004394531" y="175.4711151123"/>
			<point x="1487.4301757812" y="183.4458770752"/>
			<point x="1506.4860839844" y="183.4458770752" type="curve" smooth="yes"/>
			<point x="1553.8306884766" y="183.4458770752"/>
			<point x="1592.9541015625" y="128.1358032227"/>
			<point x="1560" y="82" type="curve" smooth="yes"/>
			<point x="1500.3544921875" y="-0.4727272689"/>
			<point x="1470.5318603516" y="-67.7629776001"/>
			<point x="1470.5318603516" y="-119.8707427979" type="curve" smooth="yes"/>
			<point x="1470.5318603516" y="-199.8601531982"/>
			<point x="1542.4681396484" y="-231.9955444336"/>
			<point x="1621.9829101562" y="-231.9955444336" type="curve" smooth="yes"/>
			<point x="1674.8695068359" y="-231.9955444336"/>
			<point x="1759.3568115234" y="-211.0746154785"/>
			<point x="1759.3568115234" y="-159.2506408691" type="curve" smooth="yes"/>
			<point x="1759.3568115234" y="-122.683013916"/>
			<point x="1746.0029296875" y="-106.6191558838"/>
			<point x="1714" y="-66" type="curve" smooth="yes"/>
			<point x="1688" y="-33"/>
			<point x="1649" y="2"/>
			<point x="1597" y="39" type="curve" smooth="yes"/>
			<point x="1579.5289306641" y="52.2004013062"/>
			<point x="1571.5540771484" y="71.5809707642"/>
			<point x="1571.5540771484" y="90.8212509155" type="curve" smooth="yes"/>
			<point x="1571.5540771484" y="138.1525726318"/>
			<point x="1627.6796875" y="179.6087799072"/>
			<point x="1673" y="144" type="curve" smooth="yes"/>
			<point x="1804" y="49"/>
			<point x="1876" y="-43"/>
			<point x="1887" y="-132" type="curve" smooth="yes"/>
			<point x="1888.1043701172" y="-140.5592041016"/>
			<point x="1888.6328125" y="-148.8812408447"/>
		</contour>
		<contour>
			<point x="602.8447265625" y="634.307800293" type="curve" smooth="yes"/>
			<point x="496.5466918945" y="634.307800293"/>
			<point x="409.5323181152" y="597.2694091797"/>
			<point x="409.5323181152" y="506.8525390625" type="curve" smooth="yes"/>
			<point x="409.5323181152" y="476.4487915039"/>
			<point x="421.1807556152" y="445.5292663574"/>
			<point x="437" y="416" type="curve" smooth="yes"/>
			<point x="444.2376403809" y="402.2484741211"/>
			<point x="447.5756225586" y="387.9731140137"/>
			<point x="447.5756225586" y="374.5079040527" type="curve" smooth="yes"/>
			<point x="447.5756225586" y="339.130645752"/>
			<point x="424.5343933105" y="309.345703125"/>
			<point x="388.6383361816" y="309.345703125" type="curve" smooth="yes"/>
			<point x="359.2872619629" y="309.345703125"/>
			<point x="338.5557250977" y="323.8885192871"/>
			<point x="328" y="345" type="curve" smooth="yes"/>
			<point x="297.1938476562" y="403.3450012207"/>
			<point x="281.6382141113" y="459.9470825195"/>
			<point x="281.6382141113" y="512.1622924805" type="curve" smooth="yes"/>
			<point x="281.6382141113" y="677.0034179688"/>
			<point x="435.3931274414" y="762.6038818359"/>
			<point x="594.2923583984" y="762.6038818359" type="curve" smooth="yes"/>
			<point x="681.5765991211" y="762.6038818359"/>
			<point x="770.7714233398" y="738.3971557617"/>
			<point x="838" y="692" type="curve" smooth="yes"/>
			<point x="912" y="641"/>
			<point x="949" y="572"/>
			<point x="949" y="484" type="curve" smooth="yes"/>
			<point x="949.0445556641" y="481.6384277344"/>
			<point x="949.0668334961" y="479.2850341797"/>
			<point x="949.0668334961" y="476.9397888184" type="curve" smooth="yes"/>
			<point x="949.0668334961" y="321.3839111328"/>
			<point x="851.0592041016" y="201.7226715088"/>
			<point x="656" y="117" type="curve"/>
			<point x="1303" y="117" type="line" smooth="yes"/>
			<point x="1436" y="117"/>
			<point x="1510" y="172"/>
			<point x="1520" y="282" type="curve" smooth="yes"/>
			<point x="1523.3831787109" y="322.1151123047"/>
			<point x="1525.1312255859" y="359.1935424805"/>
			<point x="1525.1312255859" y="393.3481445312" type="curve" smooth="yes"/>
			<point x="1525.1312255859" y="429.8609619141"/>
			<point x="1523.1334228516" y="463.0322570801"/>
			<point x="1519" y="493" type="curve" smooth="yes"/>
			<point x="1493.9985351562" y="687.2422485352"/>
			<point x="1481.9423828125" y="812.1345825195"/>
			<point x="1481.9423828125" y="868.5661621094" type="curve" smooth="yes"/>
			<point x="1481.9423828125" y="949.5737915039"/>
			<point x="1482.2976074219" y="1016.1887207031"/>
			<point x="1523" y="1042" type="curve" smooth="yes"/>
			<point x="1538" y="1052"/>
			<point x="1555" y="1055"/>
			<point x="1572" y="1051" type="curve" smooth="yes"/>
			<point x="1604.9300537109" y="1043.9436035156"/>
			<point x="1621.8770751953" y="1023.3630371094"/>
			<point x="1621.8770751953" y="990.2222900391" type="curve" smooth="yes"/>
			<point x="1621.8770751953" y="955.7959594727"/>
			<point x="1612.2839355469" y="936.2089233398"/>
			<point x="1612.2839355469" y="889.4024047852" type="curve" smooth="yes"/>
			<point x="1612.2839355469" y="823.4587402344"/>
			<point x="1620.9614257812" y="724.2191162109"/>
			<point x="1638" y="592" type="curve" smooth="yes"/>
			<point x="1648.4166259766" y="511.1666564941"/>
			<point x="1653.625" y="439.7083435059"/>
			<point x="1653.625" y="377.6973266602" type="curve" smooth="yes"/>
			<point x="1653.625" y="290.8819580078"/>
			<point x="1643.4166259766" y="222.5833282471"/>
			<point x="1623" y="173" type="curve" smooth="yes"/>
			<point x="1572" y="49"/>
			<point x="1465" y="-13"/>
			<point x="1303" y="-13" type="curve" smooth="yes"/>
			<point x="165" y="-13" type="line" smooth="yes"/>
			<point x="123.7939300537" y="-13"/>
			<point x="102.3480072021" y="19.0744247437"/>
			<point x="102.3480072021" y="51.4997367859" type="curve" smooth="yes"/>
			<point x="102.3480072021" y="79.6662063599"/>
			<point x="118.5303497314" y="108.097442627"/>
			<point x="152" y="116" type="curve" smooth="yes"/>
			<point x="170" y="120"/>
			<point x="229" y="133"/>
			<point x="329" y="155" type="curve" smooth="yes"/>
			<point x="656.9969482422" y="224.7865905762"/>
			<point x="820.0045776367" y="330.3540039062"/>
			<point x="820.0045776367" y="470.7113647461" type="curve" smooth="yes"/>
			<point x="820.0045776367" y="578.2251586914"/>
			<point x="718.0358276367" y="634.307800293"/>
		</contour>
	</outline>
</glyph>
