<?xml version="1.0" encoding="UTF-8"?>
<glyph name="ch3nj" format="2">
	<advance width="3676"/>
	<outline>
		<contour>
			<point x="2340" y="542" type="curve"/>
			<point x="2340" y="528.849609375"/>
			<point x="2336.2607421875" y="478.3179626465"/>
			<point x="2336.2607421875" y="449.7592773438" type="curve" smooth="yes"/>
			<point x="2336.2607421875" y="347.7146911621"/>
			<point x="2354" y="113.5306091309"/>
			<point x="2354" y="39" type="curve" smooth="yes"/>
			<point x="2354" y="5"/>
			<point x="2324" y="-26"/>
			<point x="2291" y="-26" type="curve" smooth="yes"/>
			<point x="2260" y="-26"/>
			<point x="2233" y="-4"/>
			<point x="2226" y="20" type="curve" smooth="yes"/>
			<point x="2213" y="64"/>
			<point x="2206" y="161"/>
			<point x="2206" y="310" type="curve" smooth="yes"/>
			<point x="2206" y="459"/>
			<point x="2207" y="540"/>
			<point x="2210" y="553" type="curve"/>
			<point x="2207" y="701"/>
			<point x="2120" y="827"/>
			<point x="1999" y="862" type="curve" smooth="yes"/>
			<point x="1981" y="867.0625"/>
			<point x="1963.158203125" y="869.59375"/>
			<point x="1945.4968261719" y="869.59375" type="curve" smooth="yes"/>
			<point x="1900.3623046875" y="869.59375"/>
			<point x="1856.40625" y="853.0625"/>
			<point x="1814" y="820" type="curve" smooth="yes"/>
			<point x="1755" y="774"/>
			<point x="1708" y="702"/>
			<point x="1672" y="605" type="curve"/>
			<point x="1687.0772705078" y="609.8636474609"/>
			<point x="1702.0953369141" y="612.3026123047"/>
			<point x="1717.0399169922" y="612.3026123047" type="curve" smooth="yes"/>
			<point x="1763.5498046875" y="612.3026123047"/>
			<point x="1809.34765625" y="588.6795654297"/>
			<point x="1854" y="541" type="curve"/>
			<point x="1934.1766357422" y="463.6530761719"/>
			<point x="1973.42578125" y="372.9602355957"/>
			<point x="1973.42578125" y="268.0821838379" type="curve" smooth="yes"/>
			<point x="1973.42578125" y="129.3898010254"/>
			<point x="1886.3192138672" y="-29.4449424744"/>
			<point x="1749.916015625" y="-29.4449424744" type="curve" smooth="yes"/>
			<point x="1732.3980712891" y="-29.4449424744"/>
			<point x="1714.0660400391" y="-26.7668991089"/>
			<point x="1695" y="-21" type="curve" smooth="yes"/>
			<point x="1628" y="2"/>
			<point x="1576" y="63"/>
			<point x="1540" y="162" type="curve"/>
			<point x="1515" y="90"/>
			<point x="1480" y="-40"/>
			<point x="1458" y="-99" type="curve" smooth="yes"/>
			<point x="1417" y="-221"/>
			<point x="1339" y="-309"/>
			<point x="1224" y="-364" type="curve" smooth="yes"/>
			<point x="1160.0495605469" y="-394.8467102051"/>
			<point x="1096.6650390625" y="-409.8441772461"/>
			<point x="1034.2725830078" y="-409.8441772461" type="curve" smooth="yes"/>
			<point x="918.7798461914" y="-409.8441772461"/>
			<point x="822.9749755859" y="-369.0899047852"/>
			<point x="822.9749755859" y="-269.344329834" type="curve" smooth="yes"/>
			<point x="822.9749755859" y="-186.1369018555"/>
			<point x="896.3407592773" y="-129.3974304199"/>
			<point x="958" y="-89" type="curve"/>
			<point x="1201.3154296875" y="51.9201812744"/>
			<point x="1468.2817382812" y="282.6924133301"/>
			<point x="1468.2817382812" y="590.4468383789" type="curve" smooth="yes"/>
			<point x="1468.2817382812" y="676.3170776367"/>
			<point x="1447.3054199219" y="745.3838500977"/>
			<point x="1407" y="796" type="curve" smooth="yes"/>
			<point x="1361.5118408203" y="853.2976074219"/>
			<point x="1313.9193115234" y="879.603515625"/>
			<point x="1266.6489257812" y="879.603515625" type="curve" smooth="yes"/>
			<point x="1205.8446044922" y="879.603515625"/>
			<point x="1145.5734863281" y="836.0780639648"/>
			<point x="1091" y="759" type="curve" smooth="yes"/>
			<point x="1011" y="646"/>
			<point x="961" y="463"/>
			<point x="940" y="208" type="curve"/>
			<point x="940" y="152"/>
			<point x="937" y="96"/>
			<point x="931" y="39" type="curve" smooth="yes"/>
			<point x="926.69921875" y="2.2042636871"/>
			<point x="896.1373901367" y="-15.8662319183"/>
			<point x="865.7225952148" y="-15.8662319183" type="curve" smooth="yes"/>
			<point x="833.2507324219" y="-15.8662319183"/>
			<point x="800.946472168" y="4.7312474251"/>
			<point x="800.946472168" y="45.1294288635" type="curve" smooth="yes"/>
			<point x="800.946472168" y="103.0281829834"/>
			<point x="804.9309082031" y="159.2674102783"/>
			<point x="810" y="213" type="curve"/>
			<point x="809" y="392"/>
			<point x="772" y="544"/>
			<point x="700" y="669" type="curve" smooth="yes"/>
			<point x="648" y="760"/>
			<point x="590" y="819"/>
			<point x="526" y="845" type="curve" smooth="yes"/>
			<point x="496.5280761719" y="856.9729614258"/>
			<point x="469.3887939453" y="863.0083007812"/>
			<point x="444.7774658203" y="863.0083007812" type="curve" smooth="yes"/>
			<point x="415.9438781738" y="863.0083007812"/>
			<point x="390.5800476074" y="854.7245483398"/>
			<point x="369" y="838" type="curve" smooth="yes"/>
			<point x="329" y="807"/>
			<point x="298" y="764"/>
			<point x="277" y="710" type="curve"/>
			<point x="286.6793212891" y="715.9564819336"/>
			<point x="301.9023742676" y="719.1411132812"/>
			<point x="322.2563781738" y="719.1411132812" type="curve" smooth="yes"/>
			<point x="372.7674255371" y="719.1411132812"/>
			<point x="405.6539916992" y="706.5643310547"/>
			<point x="458" y="681" type="curve" smooth="yes"/>
			<point x="569.8139038086" y="625.98046875"/>
			<point x="681.6278076172" y="495.3609008789"/>
			<point x="681.6278076172" y="336.6622924805" type="curve" smooth="yes"/>
			<point x="681.6278076172" y="316.5278320312"/>
			<point x="679.8280029297" y="295.9413757324"/>
			<point x="676" y="275" type="curve" smooth="yes"/>
			<point x="661" y="195"/>
			<point x="619" y="126"/>
			<point x="548" y="67" type="curve" smooth="yes"/>
			<point x="489.8194580078" y="18.6527786255"/>
			<point x="429.624420166" y="-5.5208334923"/>
			<point x="367.4149169922" y="-5.5208334923" type="curve" smooth="yes"/>
			<point x="353.7077636719" y="-5.5208334923"/>
			<point x="339.9027709961" y="-4.3472223282"/>
			<point x="326" y="-2" type="curve" smooth="yes"/>
			<point x="162.0198822021" y="25.6088962555"/>
			<point x="100.2332229614" y="198.1085205078"/>
			<point x="100.2332229614" y="407.7474060059" type="curve" smooth="yes"/>
			<point x="100.2332229614" y="647.1736450195"/>
			<point x="164.1488342285" y="843.6052246094"/>
			<point x="282" y="935" type="curve" smooth="yes"/>
			<point x="334.9909057617" y="975.8090820312"/>
			<point x="390.2077636719" y="996.2136230469"/>
			<point x="448.1025085449" y="996.2136230469" type="curve" smooth="yes"/>
			<point x="485.2588500977" y="996.2136230469"/>
			<point x="523.5181884766" y="987.8090820312"/>
			<point x="563" y="971" type="curve" smooth="yes"/>
			<point x="703" y="912"/>
			<point x="808" y="787"/>
			<point x="877" y="596" type="curve"/>
			<point x="935.4752807617" y="788.2745361328"/>
			<point x="1061.7286376953" y="1008.0532836914"/>
			<point x="1265.4956054688" y="1008.0532836914" type="curve" smooth="yes"/>
			<point x="1359.8135986328" y="1008.0532836914"/>
			<point x="1435.712890625" y="967.6139526367"/>
			<point x="1500" y="887" type="curve" smooth="yes"/>
			<point x="1538" y="840"/>
			<point x="1565" y="786"/>
			<point x="1581" y="725" type="curve"/>
			<point x="1649.6395263672" y="867.426940918"/>
			<point x="1772.2297363281" y="997.913269043"/>
			<point x="1945.9677734375" y="997.913269043" type="curve" smooth="yes"/>
			<point x="1975.6689453125" y="997.913269043"/>
			<point x="2005.6796875" y="993.6231689453"/>
			<point x="2036" y="985" type="curve" smooth="yes"/>
			<point x="2145" y="954"/>
			<point x="2229" y="884"/>
			<point x="2286" y="773" type="curve"/>
			<point x="2345" y="873"/>
			<point x="2429" y="940"/>
			<point x="2536" y="973" type="curve" smooth="yes"/>
			<point x="2580.1374511719" y="986.612487793"/>
			<point x="2624.4450683594" y="993.418762207"/>
			<point x="2668.7824707031" y="993.418762207" type="curve" smooth="yes"/>
			<point x="2731.9299316406" y="993.418762207"/>
			<point x="2795.1374511719" y="979.612487793"/>
			<point x="2858" y="952" type="curve"/>
			<point x="2913.7565917969" y="980.3760986328"/>
			<point x="2971.4956054688" y="994.625793457"/>
			<point x="3031.3408203125" y="994.625793457" type="curve" smooth="yes"/>
			<point x="3091.7087402344" y="994.625793457"/>
			<point x="3154.2194824219" y="980.1260986328"/>
			<point x="3219" y="951" type="curve" smooth="yes"/>
			<point x="3324" y="904"/>
			<point x="3411" y="825"/>
			<point x="3480" y="716" type="curve" smooth="yes"/>
			<point x="3546.6928710938" y="610.1539916992"/>
			<point x="3574.7424316406" y="510.9137268066"/>
			<point x="3574.7424316406" y="419.1193237305" type="curve" smooth="yes"/>
			<point x="3574.7424316406" y="234.2625732422"/>
			<point x="3460.9890136719" y="79.6022109985"/>
			<point x="3320" y="-38" type="curve" smooth="yes"/>
			<point x="3307.1560058594" y="-49.0378875732"/>
			<point x="3293.5063476562" y="-53.7121658325"/>
			<point x="3280.4172363281" y="-53.7121658325" type="curve" smooth="yes"/>
			<point x="3244.9165039062" y="-53.7121658325"/>
			<point x="3213.5388183594" y="-19.3272533417"/>
			<point x="3213.5388183594" y="15.7373895645" type="curve" smooth="yes"/>
			<point x="3213.5388183594" y="32.1641998291"/>
			<point x="3220.4252929688" y="48.7401885986"/>
			<point x="3237" y="62" type="curve" smooth="yes"/>
			<point x="3375.8142089844" y="176.7423553467"/>
			<point x="3445.7377929688" y="294.7038879395"/>
			<point x="3445.7377929688" y="415.367980957" type="curve" smooth="yes"/>
			<point x="3445.7377929688" y="445.083984375"/>
			<point x="3441.4970703125" y="474.9638977051"/>
			<point x="3433" y="505" type="curve" smooth="yes"/>
			<point x="3384" y="679"/>
			<point x="3241" y="848"/>
			<point x="3050" y="863" type="curve" smooth="yes"/>
			<point x="3031" y="864"/>
			<point x="3013" y="864"/>
			<point x="2995" y="862" type="curve"/>
			<point x="3099.2355957031" y="764.3477172852"/>
			<point x="3152.4816894531" y="641.94140625"/>
			<point x="3152.4816894531" y="474.8125915527" type="curve" smooth="yes"/>
			<point x="3152.4816894531" y="354.2168273926"/>
			<point x="3119.9877929688" y="246.4756164551"/>
			<point x="3055" y="153" type="curve" smooth="yes"/>
			<point x="2999" y="72"/>
			<point x="2933" y="20"/>
			<point x="2858" y="-2" type="curve" smooth="yes"/>
			<point x="2835.7844238281" y="-8.3161935806"/>
			<point x="2814.7548828125" y="-11.1695051193"/>
			<point x="2795.00390625" y="-11.1695051193" type="curve" smooth="yes"/>
			<point x="2724.0717773438" y="-11.1695051193"/>
			<point x="2669.6345214844" y="25.6323871613"/>
			<point x="2636" y="71" type="curve" smooth="yes"/>
			<point x="2591.9943847656" y="129.4338226318"/>
			<point x="2570.3669433594" y="212.8480682373"/>
			<point x="2570.3669433594" y="320.4918823242" type="curve" smooth="yes"/>
			<point x="2570.3669433594" y="545.3411865234"/>
			<point x="2638.1491699219" y="747.1921386719"/>
			<point x="2735" y="856" type="curve"/>
			<point x="2708.5288085938" y="861.7393798828"/>
			<point x="2683.3059082031" y="864.4467163086"/>
			<point x="2659.34765625" y="864.4467163086" type="curve" smooth="yes"/>
			<point x="2478.7607421875" y="864.4467163086"/>
			<point x="2370.017578125" y="710.6282348633"/>
		</contour>
		<contour>
			<point x="229.6903533936" y="400.9347229004" type="curve" smooth="yes"/>
			<point x="229.6903533936" y="272.5967712402"/>
			<point x="266.5458068848" y="124.2228240967"/>
			<point x="365.3002319336" y="124.2228240967" type="curve" smooth="yes"/>
			<point x="396.3707885742" y="124.2228240967"/>
			<point x="431.3278808594" y="139.5418548584"/>
			<point x="469" y="171" type="curve" smooth="yes"/>
			<point x="523.3789672852" y="216.2310791016"/>
			<point x="550.8965454102" y="274.8928222656"/>
			<point x="550.8965454102" y="336.2216796875" type="curve" smooth="yes"/>
			<point x="550.8965454102" y="395.5679931641"/>
			<point x="525.1292724609" y="457.4118041992"/>
			<point x="473" y="512" type="curve" smooth="yes"/>
			<point x="430" y="558"/>
			<point x="374" y="584"/>
			<point x="306" y="591" type="curve" smooth="yes"/>
			<point x="281" y="594"/>
			<point x="264" y="607"/>
			<point x="253" y="630" type="curve"/>
			<point x="239.6788024902" y="567.2000732422"/>
			<point x="229.6903533936" y="474.2076416016"/>
		</contour>
		<contour>
			<point x="1624" y="372" type="curve"/>
			<point x="1638" y="271"/>
			<point x="1656" y="202"/>
			<point x="1679" y="165" type="curve" smooth="yes"/>
			<point x="1702" y="128"/>
			<point x="1722" y="107"/>
			<point x="1737" y="101" type="curve"/>
			<point x="1740.5526123047" y="98.8684234619"/>
			<point x="1744.3857421875" y="97.8026351929"/>
			<point x="1748.5258789062" y="97.8026351929" type="curve" smooth="yes"/>
			<point x="1761.8663330078" y="97.8026351929"/>
			<point x="1778.3947753906" y="108.8684234619"/>
			<point x="1799" y="131" type="curve" smooth="yes"/>
			<point x="1826.4852294922" y="160.521194458"/>
			<point x="1843.232421875" y="212.6799163818"/>
			<point x="1843.232421875" y="279.8735351562" type="curve" smooth="yes"/>
			<point x="1843.232421875" y="340.0819396973"/>
			<point x="1817.0570068359" y="395.8397827148"/>
			<point x="1763" y="448" type="curve" smooth="yes"/>
			<point x="1757.0030517578" y="453.996887207"/>
			<point x="1736.9680175781" y="476.9285888672"/>
			<point x="1721.1063232422" y="476.9285888672" type="curve" smooth="yes"/>
			<point x="1693.9320068359" y="476.9285888672"/>
			<point x="1661.6978759766" y="442.2216186523"/>
		</contour>
		<contour>
			<point x="2864" y="800" type="curve"/>
			<point x="2767.9106445312" y="719.3323364258"/>
			<point x="2701.8625488281" y="537.0920410156"/>
			<point x="2701.8625488281" y="325.258392334" type="curve" smooth="yes"/>
			<point x="2701.8625488281" y="242.7758483887"/>
			<point x="2715.0236816406" y="183.8050537109"/>
			<point x="2741" y="148" type="curve" smooth="yes"/>
			<point x="2755.7465820312" y="127.6357116699"/>
			<point x="2767.5344238281" y="117.626701355"/>
			<point x="2788.8293457031" y="117.626701355" type="curve" smooth="yes"/>
			<point x="2797.8598632812" y="117.626701355"/>
			<point x="2808.5998535156" y="119.4266052246"/>
			<point x="2822" y="123" type="curve" smooth="yes"/>
			<point x="2937.9912109375" y="155.7801513672"/>
			<point x="3022.1840820312" y="326.6062927246"/>
			<point x="3022.1840820312" y="471.6558227539" type="curve" smooth="yes"/>
			<point x="3022.1840820312" y="622.5057373047"/>
			<point x="2968.7177734375" y="728.7487182617"/>
		</contour>
		<contour>
			<point x="953" y="-265" type="curve"/>
			<point x="967.3142700195" y="-273.9464111328"/>
			<point x="1005.7917480469" y="-280.1973571777"/>
			<point x="1033.2810058594" y="-280.1973571777" type="curve" smooth="yes"/>
			<point x="1077.0595703125" y="-280.1973571777"/>
			<point x="1122.4473876953" y="-269.1315917969"/>
			<point x="1169" y="-247" type="curve" smooth="yes"/>
			<point x="1255" y="-206"/>
			<point x="1312" y="-139"/>
			<point x="1339" y="-46" type="curve" smooth="yes"/>
			<point x="1352" y="-3"/>
			<point x="1363" y="37"/>
			<point x="1374" y="72" type="curve"/>
			<point x="1283" y="-28"/>
			<point x="1167" y="-119"/>
			<point x="1026" y="-201" type="curve" smooth="yes"/>
			<point x="985" y="-226"/>
			<point x="961" y="-248"/>
		</contour>
	</outline>
</glyph>
