<?xml version="1.0" encoding="UTF-8"?>
<glyph name="ml_3" format="2">
	<unicode hex="0D69"/>
	<advance width="2420"/>
	<outline>
		<contour>
			<point x="1898.8139648438" y="883.1214599609" type="curve" smooth="yes"/>
			<point x="1898.8139648438" y="1001.7888793945"/>
			<point x="1866.4678955078" y="1080.1489257812"/>
			<point x="1767.29296875" y="1080.1489257812" type="curve" smooth="yes"/>
			<point x="1728.3739013672" y="1080.1489257812"/>
			<point x="1682.5532226562" y="1065.7659912109"/>
			<point x="1630" y="1037" type="curve" smooth="yes"/>
			<point x="1535" y="985"/>
			<point x="1448" y="907"/>
			<point x="1370" y="802" type="curve" smooth="yes"/>
			<point x="1227" y="609"/>
			<point x="1149" y="388"/>
			<point x="1135" y="138" type="curve" smooth="yes"/>
			<point x="1132" y="105"/>
			<point x="1104" y="78"/>
			<point x="1069" y="78" type="curve" smooth="yes"/>
			<point x="1041" y="78"/>
			<point x="1005" y="105"/>
			<point x="1005" y="130" type="curve" smooth="yes"/>
			<point x="1005" y="147" type="line"/>
			<point x="1006.9542236328" y="173.3244934082"/>
			<point x="1007.9305419922" y="199.3582763672"/>
			<point x="1007.9305419922" y="225.099822998" type="curve" smooth="yes"/>
			<point x="1007.9305419922" y="423.2870788574"/>
			<point x="950.0559692383" y="604.151550293"/>
			<point x="835" y="767" type="curve" smooth="yes"/>
			<point x="751" y="887"/>
			<point x="611" y="1018"/>
			<point x="461" y="1047" type="curve" smooth="yes"/>
			<point x="442.184173584" y="1050.5327148438"/>
			<point x="424.7543945312" y="1052.2253417969"/>
			<point x="408.6322937012" y="1052.2253417969" type="curve" smooth="yes"/>
			<point x="277.095703125" y="1052.2253417969"/>
			<point x="232.6070861816" y="939.5593261719"/>
			<point x="232.6070861816" y="794.4260253906" type="curve" smooth="yes"/>
			<point x="232.6070861816" y="725.7236938477"/>
			<point x="242.5762176514" y="649.7460327148"/>
			<point x="258" y="575" type="curve" smooth="yes"/>
			<point x="287" y="437"/>
			<point x="344" y="273"/>
			<point x="429" y="83" type="curve" smooth="yes"/>
			<point x="433.0906982422" y="74.3880233765"/>
			<point x="434.9563903809" y="65.1734542847"/>
			<point x="434.9563903809" y="56.014957428" type="curve" smooth="yes"/>
			<point x="434.9563903809" y="22.6350212097"/>
			<point x="410.1727294922" y="-10"/>
			<point x="378" y="-10" type="curve" smooth="yes"/>
			<point x="345" y="-10"/>
			<point x="322" y="3"/>
			<point x="311" y="29" type="curve" smooth="yes"/>
			<point x="170.1374664307" y="340.9667358398"/>
			<point x="100.2102508545" y="594.0317993164"/>
			<point x="100.2102508545" y="788.1952514648" type="curve" smooth="yes"/>
			<point x="100.2102508545" y="1009.1071777344"/>
			<point x="199.3053588867" y="1183.017578125"/>
			<point x="405.4276733398" y="1183.017578125" type="curve" smooth="yes"/>
			<point x="428.1200256348" y="1183.017578125"/>
			<point x="451.9892272949" y="1180.7520751953"/>
			<point x="477" y="1176" type="curve" smooth="yes"/>
			<point x="677" y="1138"/>
			<point x="834" y="995"/>
			<point x="942" y="842" type="curve" smooth="yes"/>
			<point x="1006" y="752"/>
			<point x="1054" y="652"/>
			<point x="1088" y="544" type="curve"/>
			<point x="1133" y="667"/>
			<point x="1192" y="779"/>
			<point x="1266" y="879" type="curve" smooth="yes"/>
			<point x="1407" y="1070"/>
			<point x="1560" y="1179"/>
			<point x="1723" y="1206" type="curve" smooth="yes"/>
			<point x="1741.1527099609" y="1209.0417480469"/>
			<point x="1758.5447998047" y="1210.5046386719"/>
			<point x="1775.1630859375" y="1210.5046386719" type="curve" smooth="yes"/>
			<point x="1942.4656982422" y="1210.5046386719"/>
			<point x="2028.6153564453" y="1066.6174316406"/>
			<point x="2028.6153564453" y="884.64453125" type="curve" smooth="yes"/>
			<point x="2028.6153564453" y="698.1065063477"/>
			<point x="1951.0769042969" y="450.1538391113"/>
			<point x="1796" y="140" type="curve"/>
			<point x="1871.3316650391" y="137.1838684082"/>
			<point x="1991.7687988281" y="127.9240875244"/>
			<point x="2092.7529296875" y="127.9240875244" type="curve" smooth="yes"/>
			<point x="2135.205078125" y="127.9240875244"/>
			<point x="2174.2194824219" y="129.5605163574"/>
			<point x="2205" y="134" type="curve" smooth="yes"/>
			<point x="2235" y="138"/>
			<point x="2255" y="141"/>
			<point x="2266" y="141" type="curve" smooth="yes"/>
			<point x="2292" y="141"/>
			<point x="2321" y="106"/>
			<point x="2321" y="78" type="curve" smooth="yes"/>
			<point x="2321" y="44"/>
			<point x="2295" y="16"/>
			<point x="2264" y="12" type="curve" smooth="yes"/>
			<point x="2202.8442382812" y="3.263477087"/>
			<point x="2134.0107421875" y="-1.4083031416"/>
			<point x="2057.1960449219" y="-1.4083031416" type="curve" smooth="yes"/>
			<point x="1968.0473632812" y="-1.4083031416"/>
			<point x="1730.3970947266" y="12"/>
			<point x="1707" y="12" type="curve" smooth="yes"/>
			<point x="1662" y="12"/>
			<point x="1626" y="32"/>
			<point x="1626" y="71" type="curve" smooth="yes"/>
			<point x="1626" y="85"/>
			<point x="1628" y="98"/>
			<point x="1633" y="108" type="curve" smooth="yes"/>
			<point x="1731" y="293"/>
			<point x="1801" y="454"/>
			<point x="1843" y="592" type="curve" smooth="yes"/>
			<point x="1880.4455566406" y="715.0352783203"/>
			<point x="1898.8139648438" y="811.8395385742"/>
		</contour>
	</outline>
</glyph>
