<?xml version="1.0" encoding="UTF-8"?>
<glyph name="ml_au" format="2">
	<unicode hex="0D14"/>
	<advance width="2468"/>
	<outline>
		<contour>
			<point x="2263.0971679688" y="793.9938964844" type="curve" smooth="yes"/>
			<point x="2263.0971679688" y="829.283996582"/>
			<point x="2253.8100585938" y="905"/>
			<point x="2234" y="905" type="curve" smooth="yes"/>
			<point x="2191" y="904"/>
			<point x="2139" y="873"/>
			<point x="2077" y="813" type="curve" smooth="yes"/>
			<point x="2015" y="753"/>
			<point x="1957" y="673"/>
			<point x="1903" y="572" type="curve" smooth="yes"/>
			<point x="1887.5321044922" y="542.0310668945"/>
			<point x="1864.5876464844" y="527.9500732422"/>
			<point x="1835.0698242188" y="527.9500732422" type="curve" smooth="yes"/>
			<point x="1784.8210449219" y="527.9500732422"/>
			<point x="1758.0313720703" y="556.7171630859"/>
			<point x="1752" y="611" type="curve" smooth="yes"/>
			<point x="1749" y="633"/>
			<point x="1741" y="664"/>
			<point x="1728" y="703" type="curve" smooth="yes"/>
			<point x="1685" y="828"/>
			<point x="1641" y="890"/>
			<point x="1595" y="890" type="curve" smooth="yes"/>
			<point x="1547" y="890"/>
			<point x="1495" y="821"/>
			<point x="1485" y="775" type="curve" smooth="yes"/>
			<point x="1482.4953613281" y="762.643737793"/>
			<point x="1481.2453613281" y="750.1480712891"/>
			<point x="1481.2453613281" y="737.5130004883" type="curve" smooth="yes"/>
			<point x="1481.2453613281" y="674.4783325195"/>
			<point x="1512.3562011719" y="607.9739990234"/>
			<point x="1574" y="538" type="curve" smooth="yes"/>
			<point x="1584.6413574219" y="526.1762695312"/>
			<point x="1589.1469726562" y="514.1195678711"/>
			<point x="1589.1469726562" y="502.8017578125" type="curve" smooth="yes"/>
			<point x="1589.1469726562" y="471.8369445801"/>
			<point x="1555.4206542969" y="446.4028625488"/>
			<point x="1521.3489990234" y="446.4028625488" type="curve" smooth="yes"/>
			<point x="1504.6787109375" y="446.4028625488"/>
			<point x="1487.92578125" y="452.4915161133"/>
			<point x="1475" y="467" type="curve" smooth="yes"/>
			<point x="1397.5377197266" y="554.9004516602"/>
			<point x="1352.6716308594" y="652.4590454102"/>
			<point x="1352.6716308594" y="743.2604370117" type="curve" smooth="yes"/>
			<point x="1352.6716308594" y="817.739440918"/>
			<point x="1382.8572998047" y="887.6722412109"/>
			<point x="1450" y="944" type="curve" smooth="yes"/>
			<point x="1499" y="985"/>
			<point x="1550" y="1006"/>
			<point x="1604" y="1006" type="curve" smooth="yes"/>
			<point x="1711" y="1006"/>
			<point x="1794" y="913"/>
			<point x="1853" y="728" type="curve"/>
			<point x="1897" y="795"/>
			<point x="1948" y="856"/>
			<point x="2007" y="914" type="curve" smooth="yes"/>
			<point x="2066" y="972"/>
			<point x="2124" y="1005"/>
			<point x="2182" y="1014" type="curve" smooth="yes"/>
			<point x="2197.0102539062" y="1016.3291625977"/>
			<point x="2211.2165527344" y="1017.5197753906"/>
			<point x="2224.6020507812" y="1017.5197753906" type="curve" smooth="yes"/>
			<point x="2342.8676757812" y="1017.5197753906"/>
			<point x="2391.3037109375" y="917.7032470703"/>
			<point x="2391.3037109375" y="798.2247924805" type="curve" smooth="yes"/>
			<point x="2391.3037109375" y="733.8866577148"/>
			<point x="2377.8952636719" y="656.5043334961"/>
			<point x="2351" y="566" type="curve" smooth="yes"/>
			<point x="2299" y="391"/>
			<point x="2194" y="250"/>
			<point x="2080" y="156" type="curve" smooth="yes"/>
			<point x="1996" y="86"/>
			<point x="1896" y="35"/>
			<point x="1783" y="3" type="curve" smooth="yes"/>
			<point x="1776.8541259766" y="1.2074589729"/>
			<point x="1770.5607910156" y="0.3657638729"/>
			<point x="1764.3192138672" y="0.3657638729" type="curve" smooth="yes"/>
			<point x="1730.9857177734" y="0.3657638729"/>
			<point x="1699.1314697266" y="24.3725357056"/>
			<point x="1699.1314697266" y="55.759803772" type="curve" smooth="yes"/>
			<point x="1699.1314697266" y="83.8426361084"/>
			<point x="1721.6564941406" y="106.0176620483"/>
			<point x="1744" y="113" type="curve" smooth="yes"/>
			<point x="1956" y="174"/>
			<point x="2084" y="295"/>
			<point x="2186" y="483" type="curve" smooth="yes"/>
			<point x="2222.0153808594" y="550.2288208008"/>
			<point x="2263.0971679688" y="709.5861816406"/>
		</contour>
		<contour>
			<point x="1003.8198242188" y="123.7333297729" type="curve" smooth="yes"/>
			<point x="1065.5755615234" y="123.7333297729"/>
			<point x="1133.6881103516" y="152.3713989258"/>
			<point x="1133.6881103516" y="205.40184021" type="curve" smooth="yes"/>
			<point x="1133.6881103516" y="237.4562225342"/>
			<point x="1110.7399902344" y="272.8348999023"/>
			<point x="1077" y="302" type="curve" smooth="yes"/>
			<point x="1038" y="336"/>
			<point x="977" y="354"/>
			<point x="895" y="358" type="curve"/>
			<point x="868.9830322266" y="351.6098632812"/>
			<point x="846.9244995117" y="347.5114440918"/>
			<point x="827.0175170898" y="347.5114440918" type="curve" smooth="yes"/>
			<point x="785.9564819336" y="347.5114440918"/>
			<point x="737.3881225586" y="368.5129089355"/>
			<point x="744" y="417" type="curve" smooth="yes"/>
			<point x="753.2592773438" y="486.4444580078"/>
			<point x="795.9547119141" y="489.0164489746"/>
			<point x="862.5604248047" y="489.0164489746" type="curve" smooth="yes"/>
			<point x="867.8889160156" y="489.0164489746"/>
			<point x="873.3703613281" y="489"/>
			<point x="879" y="489" type="curve"/>
			<point x="966" y="519"/>
			<point x="1019" y="573"/>
			<point x="1040" y="652" type="curve"/>
			<point x="1041.0007324219" y="660.7067260742"/>
			<point x="1041.48828125" y="669.1530151367"/>
			<point x="1041.48828125" y="677.3419189453" type="curve" smooth="yes"/>
			<point x="1041.48828125" y="822.6709594727"/>
			<point x="887.952331543" y="886.9317016602"/>
			<point x="725.1450805664" y="886.9317016602" type="curve" smooth="yes"/>
			<point x="593.8294067383" y="886.9317016602"/>
			<point x="490.7309875488" y="850.5727539062"/>
			<point x="393" y="777" type="curve" smooth="yes"/>
			<point x="304" y="710"/>
			<point x="251" y="618"/>
			<point x="234" y="503" type="curve"/>
			<point x="281.6403808594" y="541.1123046875"/>
			<point x="345.5935668945" y="567.8765869141"/>
			<point x="410.8656311035" y="567.8765869141" type="curve" smooth="yes"/>
			<point x="455.2015686035" y="567.8765869141"/>
			<point x="500.1459960938" y="555.528137207"/>
			<point x="541" y="526" type="curve" smooth="yes"/>
			<point x="601.6135253906" y="482.8513793945"/>
			<point x="630.0249633789" y="424.2956848145"/>
			<point x="630.0249633789" y="346.1764831543" type="curve" smooth="yes"/>
			<point x="630.0249633789" y="231.9761199951"/>
			<point x="600.9675292969" y="142.9009094238"/>
			<point x="540" y="78" type="curve" smooth="yes"/>
			<point x="489.597869873" y="24.3461303711"/>
			<point x="433.9088134766" y="-2.2121813297"/>
			<point x="372.9328308105" y="-2.2121813297" type="curve" smooth="yes"/>
			<point x="358.9018249512" y="-2.2121813297"/>
			<point x="344.5908813477" y="-0.8059388995"/>
			<point x="330" y="2" type="curve" smooth="yes"/>
			<point x="168" y="33"/>
			<point x="100" y="244"/>
			<point x="100" y="462" type="curve" smooth="yes"/>
			<point x="100" y="466" type="line"/>
			<point x="111" y="643"/>
			<point x="184" y="782"/>
			<point x="321" y="885" type="curve" smooth="yes"/>
			<point x="436.4694213867" y="972.1467285156"/>
			<point x="563.9531860352" y="1017.0793457031"/>
			<point x="725.4038696289" y="1017.0793457031" type="curve" smooth="yes"/>
			<point x="965.9839477539" y="1017.0793457031"/>
			<point x="1171.3809814453" y="895.1382446289"/>
			<point x="1171.3809814453" y="679.8576049805" type="curve" smooth="yes"/>
			<point x="1171.3809814453" y="664.0699462891"/>
			<point x="1170.2763671875" y="647.7803344727"/>
			<point x="1168" y="631" type="curve"/>
			<point x="1168" y="628"/>
			<point x="1168" y="626"/>
			<point x="1167" y="623" type="curve"/>
			<point x="1150" y="556"/>
			<point x="1117" y="499"/>
			<point x="1069" y="453" type="curve"/>
			<point x="1168.8682861328" y="414.5891113281"/>
			<point x="1262.3527832031" y="320.9753723145"/>
			<point x="1262.3527832031" y="209.1204376221" type="curve" smooth="yes"/>
			<point x="1262.3527832031" y="76.8626480103"/>
			<point x="1149.5626220703" y="-5.9021553993"/>
			<point x="1004.9841918945" y="-5.9021553993" type="curve" smooth="yes"/>
			<point x="931.7415161133" y="-5.9021553993"/>
			<point x="848.1431884766" y="14.6688423157"/>
			<point x="754" y="56" type="curve" smooth="yes"/>
			<point x="734.5787963867" y="65.3221817017"/>
			<point x="714.5540771484" y="88.5246963501"/>
			<point x="714.5540771484" y="116.6999282837" type="curve" smooth="yes"/>
			<point x="714.5540771484" y="150.9830780029"/>
			<point x="743.6220703125" y="181.221572876"/>
			<point x="779.9791870117" y="181.221572876" type="curve" smooth="yes"/>
			<point x="787.5147094727" y="181.221572876"/>
			<point x="795.2803344727" y="179.6453857422"/>
			<point x="803" y="176" type="curve" smooth="yes"/>
			<point x="882.0222167969" y="141.1555480957"/>
			<point x="949.0424804688" y="123.7333297729"/>
		</contour>
		<contour>
			<point x="500" y="350" type="curve" smooth="yes"/>
			<point x="500" y="407.6187744141"/>
			<point x="455.9374389648" y="437.4681091309"/>
			<point x="406.0248413086" y="437.4681091309" type="curve" smooth="yes"/>
			<point x="376.91015625" y="437.4681091309"/>
			<point x="346.5685424805" y="425.3687133789"/>
			<point x="315" y="401" type="curve" smooth="yes"/>
			<point x="303.8015136719" y="392.4891662598"/>
			<point x="290.5965576172" y="388.5932617188"/>
			<point x="277.3624267578" y="388.5932617188" type="curve" smooth="yes"/>
			<point x="261.0520629883" y="388.5932617188"/>
			<point x="244.6974029541" y="394.5108337402"/>
			<point x="232" y="405" type="curve"/>
			<point x="238.9616851807" y="294.6076660156"/>
			<point x="270.4875183105" y="128.828125"/>
			<point x="371.4510803223" y="128.828125" type="curve" smooth="yes"/>
			<point x="395.4130859375" y="128.828125"/>
			<point x="418.0625" y="140.21875"/>
			<point x="440" y="163" type="curve" smooth="yes"/>
			<point x="480.0238037109" y="204.9761962891"/>
			<point x="500.0357055664" y="266.0113525391"/>
			<point x="500.0357055664" y="344.244934082" type="curve" smooth="yes"/>
			<point x="500.0357055664" y="346.1530761719"/>
			<point x="500.0238037109" y="348.0714416504"/>
		</contour>
	</outline>
</glyph>
