<?xml version="1.0" encoding="UTF-8"?>
<glyph name="n1n1" format="2">
	<advance width="2612"/>
	<outline>
		<contour>
			<point x="1585.3984375" y="-3.0361549854" type="curve" smooth="yes"/>
			<point x="1553.4909667969" y="-3.0361549854"/>
			<point x="1519.5714111328" y="28.9994182587"/>
			<point x="1522" y="63" type="curve" smooth="yes"/>
			<point x="1524" y="126"/>
			<point x="1528" y="186"/>
			<point x="1535" y="245" type="curve"/>
			<point x="1535.5401611328" y="262.2866821289"/>
			<point x="1535.8114013672" y="279.5824890137"/>
			<point x="1535.8114013672" y="296.8396911621" type="curve" smooth="yes"/>
			<point x="1535.8114013672" y="535.1458129883"/>
			<point x="1484.0994873047" y="766.0902709961"/>
			<point x="1375" y="864" type="curve" smooth="yes"/>
			<point x="1342.8055419922" y="892.7694702148"/>
			<point x="1311.0804443359" y="906.9934692383"/>
			<point x="1279.8244628906" y="906.9934692383" type="curve" smooth="yes"/>
			<point x="1265.4504394531" y="906.9934692383"/>
			<point x="1251.1755371094" y="903.9852294922"/>
			<point x="1237" y="898" type="curve" smooth="yes"/>
			<point x="1180" y="876"/>
			<point x="1132" y="824"/>
			<point x="1095" y="742" type="curve" smooth="yes"/>
			<point x="1034" y="606"/>
			<point x="1012" y="467"/>
			<point x="1010" y="297" type="curve"/>
			<point x="1017" y="223"/>
			<point x="1021" y="145"/>
			<point x="1021" y="63" type="curve" smooth="yes"/>
			<point x="1021" y="28"/>
			<point x="991" y="-2"/>
			<point x="956" y="-2" type="curve" smooth="yes"/>
			<point x="922" y="-2"/>
			<point x="894" y="25"/>
			<point x="891" y="57" type="curve" smooth="yes"/>
			<point x="883" y="140"/>
			<point x="879" y="208"/>
			<point x="879" y="262" type="curve" smooth="yes"/>
			<point x="879" y="316"/>
			<point x="870" y="383"/>
			<point x="853" y="463" type="curve" smooth="yes"/>
			<point x="818" y="623"/>
			<point x="763" y="739"/>
			<point x="689" y="811" type="curve" smooth="yes"/>
			<point x="622.8764648438" y="875.632019043"/>
			<point x="552.0565185547" y="908.3781738281"/>
			<point x="483.9135437012" y="908.3781738281" type="curve" smooth="yes"/>
			<point x="414.994720459" y="908.3781738281"/>
			<point x="348.8141784668" y="874.8820800781"/>
			<point x="293" y="807" type="curve" smooth="yes"/>
			<point x="251.3871154785" y="756.0454711914"/>
			<point x="229.9682006836" y="689.2242431641"/>
			<point x="229.9682006836" y="608.3737792969" type="curve" smooth="yes"/>
			<point x="229.9682006836" y="594.0211791992"/>
			<point x="230.6431884766" y="579.2265014648"/>
			<point x="232" y="564" type="curve" smooth="yes"/>
			<point x="245" y="411"/>
			<point x="329" y="256"/>
			<point x="483" y="97" type="curve" smooth="yes"/>
			<point x="494.6327819824" y="84.3978347778"/>
			<point x="500.3922119141" y="68.0367431641"/>
			<point x="500.3922119141" y="51.7883644104" type="curve" smooth="yes"/>
			<point x="500.3922119141" y="16.2775173187"/>
			<point x="470.9082641602" y="-13.2574977875"/>
			<point x="435.6222229004" y="-13.2574977875" type="curve" smooth="yes"/>
			<point x="418.6613464355" y="-13.2574977875"/>
			<point x="401.7499084473" y="-6.7498998642"/>
			<point x="389" y="6" type="curve" smooth="yes"/>
			<point x="214" y="187"/>
			<point x="118" y="370"/>
			<point x="103" y="553" type="curve" smooth="yes"/>
			<point x="101.2857131958" y="572.4285888672"/>
			<point x="100.4285736084" y="591.3877563477"/>
			<point x="100.4285736084" y="609.8717041016" type="curve" smooth="yes"/>
			<point x="100.4285736084" y="848.2695922852"/>
			<point x="268.500793457" y="1039.4693603516"/>
			<point x="495.3639221191" y="1039.4693603516" type="curve" smooth="yes"/>
			<point x="704.3284301758" y="1039.4693603516"/>
			<point x="857.4824829102" y="842.1997070312"/>
			<point x="928" y="664" type="curve"/>
			<point x="983" y="856"/>
			<point x="1071" y="975"/>
			<point x="1191" y="1020" type="curve" smooth="yes"/>
			<point x="1223.1594238281" y="1031.4854736328"/>
			<point x="1254.349609375" y="1037.2635498047"/>
			<point x="1284.6059570312" y="1037.2635498047" type="curve" smooth="yes"/>
			<point x="1346.5504150391" y="1037.2635498047"/>
			<point x="1404.5806884766" y="1013.0445556641"/>
			<point x="1459" y="964" type="curve" smooth="yes"/>
			<point x="1540" y="891"/>
			<point x="1597" y="782"/>
			<point x="1631" y="637" type="curve"/>
			<point x="1663" y="712"/>
			<point x="1702" y="779"/>
			<point x="1747" y="837" type="curve" smooth="yes"/>
			<point x="1840" y="956"/>
			<point x="1945" y="1022"/>
			<point x="2063" y="1034" type="curve" smooth="yes"/>
			<point x="2079.8571777344" y="1035.7142333984"/>
			<point x="2096.3876953125" y="1036.5714111328"/>
			<point x="2112.5888671875" y="1036.5714111328" type="curve" smooth="yes"/>
			<point x="2352.9560546875" y="1036.5714111328"/>
			<point x="2512.9914550781" y="846.2622680664"/>
			<point x="2512.9914550781" y="604.3675537109" type="curve" smooth="yes"/>
			<point x="2512.9914550781" y="404.6819763184"/>
			<point x="2408.2592773438" y="201.6278991699"/>
			<point x="2198" y="-4" type="curve" smooth="yes"/>
			<point x="2184.2954101562" y="-17.7045078278"/>
			<point x="2169.1271972656" y="-23.4341316223"/>
			<point x="2154.5251464844" y="-23.4341316223" type="curve" smooth="yes"/>
			<point x="2119.2209472656" y="-23.4341316223"/>
			<point x="2087.2255859375" y="10.0579137802"/>
			<point x="2087.2255859375" y="45.3106155396" type="curve" smooth="yes"/>
			<point x="2087.2255859375" y="60.3779563904"/>
			<point x="2093.0705566406" y="75.7669372559"/>
			<point x="2107" y="89" type="curve" smooth="yes"/>
			<point x="2290.1826171875" y="268.463104248"/>
			<point x="2382.5778808594" y="440.1444091797"/>
			<point x="2382.5778808594" y="604.0439453125" type="curve" smooth="yes"/>
			<point x="2382.5778808594" y="776.0618286133"/>
			<point x="2277.4567871094" y="905.9529418945"/>
			<point x="2112.2353515625" y="905.9529418945" type="curve" smooth="yes"/>
			<point x="2002.4478759766" y="905.9529418945"/>
			<point x="1927.4620361328" y="856.4086303711"/>
			<point x="1851" y="760" type="curve" smooth="yes"/>
			<point x="1753" y="636"/>
			<point x="1691" y="461"/>
			<point x="1665" y="235" type="curve"/>
			<point x="1663" y="176"/>
			<point x="1659" y="116"/>
			<point x="1652" y="54" type="curve" smooth="yes"/>
			<point x="1648.1773681641" y="19.59633255"/>
			<point x="1616.7532958984" y="-3.0361549854"/>
		</contour>
	</outline>
</glyph>
