<?xml version="1.0" encoding="UTF-8"?>
<glyph name="n1th4r3u1" format="2">
	<advance width="3250"/>
	<outline>
		<contour>
			<point x="3323.6328125" y="-344.9637756348" type="curve" smooth="yes"/>
			<point x="3323.6328125" y="-478.2926025391"/>
			<point x="3191.1374511719" y="-549.9021606445"/>
			<point x="3058.248046875" y="-549.9021606445" type="curve" smooth="yes"/>
			<point x="2933.1755371094" y="-549.9021606445"/>
			<point x="2848.6904296875" y="-504.206451416"/>
			<point x="2803" y="-419" type="curve" smooth="yes"/>
			<point x="2784.994140625" y="-385.2797546387"/>
			<point x="2775.9909667969" y="-348.6657104492"/>
			<point x="2775.9909667969" y="-309.1929321289" type="curve" smooth="yes"/>
			<point x="2775.9909667969" y="-228.0943145752"/>
			<point x="2813.994140625" y="-134.9285736084"/>
			<point x="2890" y="-30" type="curve" smooth="yes"/>
			<point x="2903.2004394531" y="-12.5288820267"/>
			<point x="2922.4301757812" y="-4.5541186333"/>
			<point x="2941.4860839844" y="-4.5541186333" type="curve" smooth="yes"/>
			<point x="2988.8308105469" y="-4.5541186333"/>
			<point x="3027.9541015625" y="-59.864200592"/>
			<point x="2995" y="-106" type="curve" smooth="yes"/>
			<point x="2935.3544921875" y="-188.4727325439"/>
			<point x="2905.5317382812" y="-255.7629699707"/>
			<point x="2905.5317382812" y="-307.8707580566" type="curve" smooth="yes"/>
			<point x="2905.5317382812" y="-387.860168457"/>
			<point x="2977.4680175781" y="-419.9955444336"/>
			<point x="3056.9829101562" y="-419.9955444336" type="curve" smooth="yes"/>
			<point x="3109.4870605469" y="-419.9955444336"/>
			<point x="3193.4211425781" y="-399.4559020996"/>
			<point x="3193.4211425781" y="-347.9238891602" type="curve" smooth="yes"/>
			<point x="3193.4211425781" y="-311.2600402832"/>
			<point x="3181.998046875" y="-294.6129150391"/>
			<point x="3150" y="-254" type="curve" smooth="yes"/>
			<point x="3124" y="-221"/>
			<point x="3084" y="-186"/>
			<point x="3032" y="-149" type="curve" smooth="yes"/>
			<point x="3014.5288085938" y="-135.7996063232"/>
			<point x="3006.5541992188" y="-116.4190292358"/>
			<point x="3006.5541992188" y="-97.1787490845" type="curve" smooth="yes"/>
			<point x="3006.5541992188" y="-49.8474235535"/>
			<point x="3062.6796875" y="-8.3912210464"/>
			<point x="3108" y="-44" type="curve" smooth="yes"/>
			<point x="3239" y="-139"/>
			<point x="3311" y="-231"/>
			<point x="3322" y="-320" type="curve" smooth="yes"/>
			<point x="3323.1044921875" y="-328.5592041016"/>
			<point x="3323.6328125" y="-336.8812561035"/>
		</contour>
		<contour>
			<point x="1646.6164550781" y="630.1459960938" type="curve" smooth="yes"/>
			<point x="1646.6164550781" y="758.643737793"/>
			<point x="1616.8237304688" y="889.8633422852"/>
			<point x="1502.0632324219" y="889.8633422852" type="curve" smooth="yes"/>
			<point x="1464.2274169922" y="889.8633422852"/>
			<point x="1420.873046875" y="874.4570922852"/>
			<point x="1372" y="844" type="curve" smooth="yes"/>
			<point x="1265" y="776"/>
			<point x="1172" y="625"/>
			<point x="1136" y="446" type="curve"/>
			<point x="1141.4434814453" y="393.8332214355"/>
			<point x="1144.2119140625" y="338.7856140137"/>
			<point x="1144.2119140625" y="280.6704711914" type="curve" smooth="yes"/>
			<point x="1144.2119140625" y="210.6725921631"/>
			<point x="1140.1956787109" y="136.2245178223"/>
			<point x="1132" y="57" type="curve" smooth="yes"/>
			<point x="1127.8759765625" y="19.8840713501"/>
			<point x="1096.380859375" y="0.5726703405"/>
			<point x="1065.4602050781" y="0.5726703405" type="curve" smooth="yes"/>
			<point x="1036.3989257812" y="0.5726703405"/>
			<point x="1007.8450317383" y="17.6314277649"/>
			<point x="1003" y="53" type="curve" smooth="yes"/>
			<point x="991.7498779297" y="122.4572525024"/>
			<point x="986.2418212891" y="189.76121521"/>
			<point x="986.2418212891" y="254.9119110107" type="curve" smooth="yes"/>
			<point x="986.2418212891" y="322.9567871094"/>
			<point x="992.2501220703" y="388.6528015137"/>
			<point x="1004" y="452" type="curve"/>
			<point x="985" y="609"/>
			<point x="940" y="730"/>
			<point x="868" y="816" type="curve" smooth="yes"/>
			<point x="813.6694335938" y="880.1101074219"/>
			<point x="746.6460571289" y="915.2924194336"/>
			<point x="679.5994262695" y="915.2924194336" type="curve" smooth="yes"/>
			<point x="623.2410888672" y="915.2924194336"/>
			<point x="566.8662719727" y="890.4332275391"/>
			<point x="518" y="837" type="curve" smooth="yes"/>
			<point x="473.6923217773" y="788.0769042969"/>
			<point x="451.5384521484" y="720.4082641602"/>
			<point x="451.5384521484" y="633.2075805664" type="curve" smooth="yes"/>
			<point x="451.5384521484" y="458.154510498"/>
			<point x="532.8397216797" y="293.9696960449"/>
			<point x="691" y="111" type="curve" smooth="yes"/>
			<point x="701.9719238281" y="97.9962615967"/>
			<point x="706.6274414062" y="84.1255645752"/>
			<point x="706.6274414062" y="70.8138961792" type="curve" smooth="yes"/>
			<point x="706.6274414062" y="35.0274009705"/>
			<point x="672.9807128906" y="3.2811398506"/>
			<point x="637.9566650391" y="3.2811398506" type="curve" smooth="yes"/>
			<point x="621.8891601562" y="3.2811398506"/>
			<point x="605.5316772461" y="9.9624233246"/>
			<point x="592" y="26" type="curve" smooth="yes"/>
			<point x="412.8875732422" y="235.3116149902"/>
			<point x="321.325012207" y="424.7616577148"/>
			<point x="321.325012207" y="635.6943969727" type="curve" smooth="yes"/>
			<point x="321.325012207" y="755.8981323242"/>
			<point x="355.549987793" y="853"/>
			<point x="424" y="927" type="curve" smooth="yes"/>
			<point x="497.0974121094" y="1006.024230957"/>
			<point x="583.8554077148" y="1046.0183105469"/>
			<point x="686.2017211914" y="1046.0183105469" type="curve" smooth="yes"/>
			<point x="793.2269287109" y="1046.0183105469"/>
			<point x="885.1787719727" y="996.9733276367"/>
			<point x="967" y="900" type="curve" smooth="yes"/>
			<point x="1016" y="842"/>
			<point x="1054" y="772"/>
			<point x="1083" y="691" type="curve"/>
			<point x="1142" y="812"/>
			<point x="1220" y="902"/>
			<point x="1316" y="963" type="curve" smooth="yes"/>
			<point x="1377" y="1001.7604370117"/>
			<point x="1437.1925048828" y="1021.140625"/>
			<point x="1496.0643310547" y="1021.140625" type="curve" smooth="yes"/>
			<point x="1698.1828613281" y="1021.140625"/>
			<point x="1777.9040527344" y="843.7005004883"/>
			<point x="1777.9040527344" y="621.6088867188" type="curve" smooth="yes"/>
			<point x="1777.9040527344" y="546.0395507812"/>
			<point x="1754.8835449219" y="446.8484802246"/>
			<point x="1754.8835449219" y="381.3501281738" type="curve" smooth="yes"/>
			<point x="1754.8835449219" y="360.6258850098"/>
			<point x="1756.5705566406" y="342.8609619141"/>
			<point x="1760" y="328" type="curve" smooth="yes"/>
			<point x="1779.8104248047" y="233.2542724609"/>
			<point x="1870.8414306641" y="120.7034225464"/>
			<point x="1988.3629150391" y="120.7034225464" type="curve" smooth="yes"/>
			<point x="2007.2841796875" y="120.7034225464"/>
			<point x="2026.8920898438" y="123.6209411621"/>
			<point x="2047" y="130" type="curve" smooth="yes"/>
			<point x="2174.9743652344" y="171.1665649414"/>
			<point x="2239.6782226562" y="328.4624023438"/>
			<point x="2239.6782226562" y="601.887512207" type="curve" smooth="yes"/>
			<point x="2239.6782226562" y="633.9907836914"/>
			<point x="2238.7863769531" y="667.6949462891"/>
			<point x="2237" y="703" type="curve" smooth="yes"/>
			<point x="2232.9406738281" y="779.1128540039"/>
			<point x="2213.8239746094" y="896.8635864258"/>
			<point x="2213.8239746094" y="956.2004394531" type="curve" smooth="yes"/>
			<point x="2213.8239746094" y="983.0114135742"/>
			<point x="2249.9836425781" y="1012.2211303711"/>
			<point x="2279.1689453125" y="1012.2211303711" type="curve" smooth="yes"/>
			<point x="2312.0048828125" y="1012.2211303711"/>
			<point x="2340.1982421875" y="985.5139770508"/>
			<point x="2344" y="957" type="curve" smooth="yes"/>
			<point x="2397" y="580"/>
			<point x="2486" y="324"/>
			<point x="2611" y="190" type="curve" smooth="yes"/>
			<point x="2664.7224121094" y="132.6423187256"/>
			<point x="2717.62890625" y="107.7529373169"/>
			<point x="2767.4130859375" y="107.7529373169" type="curve" smooth="yes"/>
			<point x="2890.4895019531" y="107.7529373169"/>
			<point x="3001.6782226562" y="272.4298095703"/>
			<point x="3018" y="410" type="curve"/>
			<point x="3018" y="446" type="line" smooth="yes"/>
			<point x="3018" y="454"/>
			<point x="3019" y="461"/>
			<point x="3021" y="468" type="curve"/>
			<point x="3021" y="695"/>
			<point x="2916" y="822"/>
			<point x="2770" y="917" type="curve" smooth="yes"/>
			<point x="2750.9287109375" y="929.8524169922"/>
			<point x="2741.9987792969" y="950.2679443359"/>
			<point x="2741.9987792969" y="970.549987793" type="curve" smooth="yes"/>
			<point x="2741.9987792969" y="1015.7489013672"/>
			<point x="2792.8503417969" y="1054.8898925781"/>
			<point x="2841" y="1026" type="curve" smooth="yes"/>
			<point x="3042.8737792969" y="893.8454589844"/>
			<point x="3151.0405273438" y="718.3626708984"/>
			<point x="3151.0405273438" y="478.892791748" type="curve" smooth="yes"/>
			<point x="3151.0405273438" y="456.4535827637"/>
			<point x="3149.9372558594" y="434.3097839355"/>
			<point x="3148" y="413" type="curve"/>
			<point x="3148" y="400"/>
			<point x="3148" y="387"/>
			<point x="3148" y="374" type="curve"/>
			<point x="3139" y="202"/>
			<point x="3088" y="45"/>
			<point x="2994" y="-96" type="curve" smooth="yes"/>
			<point x="2779.1767578125" y="-419.2112121582"/>
			<point x="2387.9577636719" y="-581.2823486328"/>
			<point x="1821.2736816406" y="-581.2823486328" type="curve" smooth="yes"/>
			<point x="1317.1402587891" y="-581.2823486328"/>
			<point x="918.9902954102" y="-543.5446777344"/>
			<point x="745" y="-493" type="curve" smooth="yes"/>
			<point x="609" y="-454"/>
			<point x="483" y="-377"/>
			<point x="368" y="-262" type="curve" smooth="yes"/>
			<point x="198.4342956543" y="-92.4342880249"/>
			<point x="99.9545974731" y="185.223526001"/>
			<point x="99.9545974731" y="536.6900634766" type="curve" smooth="yes"/>
			<point x="99.9545974731" y="670.6212768555"/>
			<point x="113.2520294189" y="818.4422607422"/>
			<point x="140" y="980" type="curve" smooth="yes"/>
			<point x="145.2906951904" y="1015.2713012695"/>
			<point x="173.5188446045" y="1031.4929199219"/>
			<point x="202.3160400391" y="1031.4929199219" type="curve" smooth="yes"/>
			<point x="235.7312011719" y="1031.4929199219"/>
			<point x="269.9125366211" y="1009.6514892578"/>
			<point x="269.9125366211" y="970.3873901367" type="curve" smooth="yes"/>
			<point x="269.9125366211" y="966.7407226562"/>
			<point x="269.6177062988" y="962.9437255859"/>
			<point x="269" y="959" type="curve" smooth="yes"/>
			<point x="243.0436859131" y="801.0530395508"/>
			<point x="229.8970947266" y="658.6607666016"/>
			<point x="229.8970947266" y="531.6547241211" type="curve" smooth="yes"/>
			<point x="229.8970947266" y="224.1208190918"/>
			<point x="318.174041748" y="-27.1740398407"/>
			<point x="462" y="-171" type="curve" smooth="yes"/>
			<point x="560" y="-269"/>
			<point x="666" y="-335"/>
			<point x="781" y="-368" type="curve" smooth="yes"/>
			<point x="943.1154785156" y="-415.5668029785"/>
			<point x="1325.0865478516" y="-451.2268371582"/>
			<point x="1818.4167480469" y="-451.2268371582" type="curve" smooth="yes"/>
			<point x="2364.1572265625" y="-451.2268371582"/>
			<point x="2728.0183105469" y="-296.1300964355"/>
			<point x="2910" y="15" type="curve"/>
			<point x="2861.7197265625" y="-11.2700901031"/>
			<point x="2812.935546875" y="-24.181438446"/>
			<point x="2764.8103027344" y="-24.181438446" type="curve" smooth="yes"/>
			<point x="2677.3723144531" y="-24.181438446"/>
			<point x="2592.1098632812" y="18.4401569366"/>
			<point x="2516" y="101" type="curve" smooth="yes"/>
			<point x="2453" y="169"/>
			<point x="2398" y="260"/>
			<point x="2352" y="375" type="curve"/>
			<point x="2317" y="175"/>
			<point x="2229" y="52"/>
			<point x="2088" y="7" type="curve" smooth="yes"/>
			<point x="2052.2143554688" y="-4.2024655342"/>
			<point x="2017.3969726562" y="-9.7886314392"/>
			<point x="1983.5179443359" y="-9.7886314392" type="curve" smooth="yes"/>
			<point x="1806.6661376953" y="-9.7886314392"/>
			<point x="1664.3891601562" y="148.0102386475"/>
			<point x="1633" y="300" type="curve" smooth="yes"/>
			<point x="1627.4615478516" y="325.3846130371"/>
			<point x="1624.6922607422" y="353.3254394531"/>
			<point x="1624.6922607422" y="384.1174316406" type="curve" smooth="yes"/>
			<point x="1624.6922607422" y="459.3481445312"/>
			<point x="1646.6164550781" y="549.0549926758"/>
		</contour>
	</outline>
</glyph>
