<?xml version="1.0" encoding="UTF-8"?>
<glyph name="n2" format="2">
	<unicode hex="0D29"/>
	<advance width="1853"/>
	<outline>
		<contour>
			<point x="482.8522949219" y="669.4476318359" type="curve" smooth="yes"/>
			<point x="381.5504150391" y="669.4476318359"/>
			<point x="308.0146789551" y="633.5361938477"/>
			<point x="233" y="563" type="curve"/>
			<point x="246.3298187256" y="741.6195068359"/>
			<point x="352.0552978516" y="887.0713500977"/>
			<point x="531.2284545898" y="887.0713500977" type="curve" smooth="yes"/>
			<point x="553.6783447266" y="887.0713500977"/>
			<point x="577.28125" y="884.7878417969"/>
			<point x="602" y="880" type="curve" smooth="yes"/>
			<point x="690" y="863"/>
			<point x="768" y="808"/>
			<point x="838" y="714" type="curve" smooth="yes"/>
			<point x="908" y="620"/>
			<point x="954" y="522"/>
			<point x="974" y="418" type="curve" smooth="yes"/>
			<point x="1004" y="264"/>
			<point x="1007" y="196"/>
			<point x="1012" y="68" type="curve" smooth="yes"/>
			<point x="1013.6766967773" y="27.7590885162"/>
			<point x="1038.2919921875" y="-3.8028242588"/>
			<point x="1075.2486572266" y="-3.8028242588" type="curve" smooth="yes"/>
			<point x="1110.0952148438" y="-3.8028242588"/>
			<point x="1142.0115966797" y="28.5687675476"/>
			<point x="1142.0115966797" y="70.6119537354" type="curve" smooth="yes"/>
			<point x="1142.0115966797" y="106.2261810303"/>
			<point x="1140.8131103516" y="140.2697296143"/>
			<point x="1140.8131103516" y="174.4652709961" type="curve" smooth="yes"/>
			<point x="1140.8131103516" y="245.3089447021"/>
			<point x="1143.1961669922" y="317.2526550293"/>
			<point x="1152" y="408" type="curve" smooth="yes"/>
			<point x="1161" y="500"/>
			<point x="1184" y="592"/>
			<point x="1220" y="685" type="curve" smooth="yes"/>
			<point x="1256" y="778"/>
			<point x="1305" y="837"/>
			<point x="1366" y="862" type="curve" smooth="yes"/>
			<point x="1379.4169921875" y="867.616394043"/>
			<point x="1393.2233886719" y="870.4094238281"/>
			<point x="1407.3585205078" y="870.4094238281" type="curve" smooth="yes"/>
			<point x="1438.5249023438" y="870.4094238281"/>
			<point x="1471.2891845703" y="856.8311157227"/>
			<point x="1505" y="830" type="curve" smooth="yes"/>
			<point x="1559.8807373047" y="786.3193969727"/>
			<point x="1623.8443603516" y="633.1630249023"/>
			<point x="1623.8443603516" y="484.3140258789" type="curve" smooth="yes"/>
			<point x="1623.8443603516" y="374.6936645508"/>
			<point x="1592.8962402344" y="244.7735900879"/>
			<point x="1531" y="95" type="curve" smooth="yes"/>
			<point x="1527.5639648438" y="86.6553955078"/>
			<point x="1525.9752197266" y="78.1233978271"/>
			<point x="1525.9752197266" y="69.7938461304" type="curve" smooth="yes"/>
			<point x="1525.9752197266" y="35.3750839233"/>
			<point x="1553.1029052734" y="4.4130396843"/>
			<point x="1589.1243896484" y="4.4130396843" type="curve" smooth="yes"/>
			<point x="1620.4631347656" y="4.4130396843"/>
			<point x="1641.5206298828" y="22.9787578583"/>
			<point x="1651" y="46" type="curve" smooth="yes"/>
			<point x="1719.2972412109" y="211.1141052246"/>
			<point x="1753.234375" y="358.2033081055"/>
			<point x="1753.234375" y="486.8448486328" type="curve" smooth="yes"/>
			<point x="1753.234375" y="687.6864624023"/>
			<point x="1671.9047851562" y="862.8762207031"/>
			<point x="1578" y="938" type="curve" smooth="yes"/>
			<point x="1525.7551269531" y="979.7958984375"/>
			<point x="1470.9512939453" y="1000.6938476562"/>
			<point x="1413.3099365234" y="1000.6938476562" type="curve" smooth="yes"/>
			<point x="1382.6879882812" y="1000.6938476562"/>
			<point x="1351.2652587891" y="994.7958984375"/>
			<point x="1319" y="983" type="curve" smooth="yes"/>
			<point x="1193" y="933"/>
			<point x="1104" y="803"/>
			<point x="1053" y="592" type="curve"/>
			<point x="966.8330078125" y="811.8743896484"/>
			<point x="794.9496459961" y="1017.3912963867"/>
			<point x="530.5440673828" y="1017.3912963867" type="curve" smooth="yes"/>
			<point x="444.8790283203" y="1017.3912963867"/>
			<point x="366.4347839355" y="992.2608642578"/>
			<point x="294" y="942" type="curve" smooth="yes"/>
			<point x="173.7734527588" y="858.5775146484"/>
			<point x="100.2355651855" y="717.7916259766"/>
			<point x="100.2355651855" y="522.7844238281" type="curve" smooth="yes"/>
			<point x="100.2355651855" y="487.7274169922"/>
			<point x="103.2311096191" y="453.132598877"/>
			<point x="109" y="419" type="curve" smooth="yes"/>
			<point x="123" y="301"/>
			<point x="172" y="204"/>
			<point x="256" y="126" type="curve" smooth="yes"/>
			<point x="340" y="48"/>
			<point x="417" y="6"/>
			<point x="487" y="-1" type="curve" smooth="yes"/>
			<point x="507.0662536621" y="-2.9241614342"/>
			<point x="525.7157592773" y="-3.8849439621"/>
			<point x="543.1094970703" y="-3.8849439621" type="curve" smooth="yes"/>
			<point x="652.2709350586" y="-3.8849439621"/>
			<point x="711.971496582" y="33.9572868347"/>
			<point x="762" y="109" type="curve" smooth="yes"/>
			<point x="794.3229370117" y="157.4843902588"/>
			<point x="810.1874389648" y="215.0545043945"/>
			<point x="810.1874389648" y="289.1264343262" type="curve" smooth="yes"/>
			<point x="810.1874389648" y="494.5219726562"/>
			<point x="682.8033447266" y="669.4476318359"/>
		</contour>
		<contour>
			<point x="680.127746582" y="294.3226013184" type="curve" smooth="yes"/>
			<point x="680.127746582" y="198.4065093994"/>
			<point x="645.3421630859" y="125.3725814819"/>
			<point x="555.9553833008" y="125.3725814819" type="curve" smooth="yes"/>
			<point x="465.7957763672" y="125.3725814819"/>
			<point x="427.0534362793" y="144.4692077637"/>
			<point x="354" y="211" type="curve" smooth="yes"/>
			<point x="298" y="262"/>
			<point x="263" y="321"/>
			<point x="246" y="388" type="curve"/>
			<point x="253" y="392"/>
			<point x="265" y="406"/>
			<point x="284" y="431" type="curve" smooth="yes"/>
			<point x="321.8357849121" y="480.9110412598"/>
			<point x="399.850769043" y="537.9506225586"/>
			<point x="484.1349487305" y="537.9506225586" type="curve" smooth="yes"/>
			<point x="504.5494689941" y="537.9506225586"/>
			<point x="525.3317871094" y="534.6043701172"/>
			<point x="546" y="527" type="curve" smooth="yes"/>
			<point x="630.5270996094" y="495.909576416"/>
			<point x="680.127746582" y="411.0133972168"/>
		</contour>
	</outline>
</glyph>
