<?xml version="1.0" encoding="UTF-8"?>
<glyph name="notequal" format="2">
	<unicode hex="2260"/>
	<advance width="866"/>
	<outline>
		<contour>
			<point x="649" y="1232" type="curve" smooth="yes"/>
			<point x="662" y="1217"/>
			<point x="674" y="1206"/>
			<point x="683" y="1196" type="curve"/>
			<point x="690" y="1189"/>
			<point x="689" y="1172"/>
			<point x="681" y="1146" type="curve" smooth="yes"/>
			<point x="329" y="30" type="line" smooth="yes"/>
			<point x="323.015411377" y="11.2981367111"/>
			<point x="296.8846435547" y="-6.8441109657"/>
			<point x="269.8648986816" y="-6.8441109657" type="curve" smooth="yes"/>
			<point x="260.7655944824" y="-6.8441109657"/>
			<point x="251.5654602051" y="-4.7865839005"/>
			<point x="243" y="0" type="curve" smooth="yes"/>
			<point x="238" y="3"/>
			<point x="226" y="15"/>
			<point x="209" y="37" type="curve" smooth="yes"/>
			<point x="203" y="45"/>
			<point x="204" y="61"/>
			<point x="212" y="86" type="curve" smooth="yes"/>
			<point x="563" y="1201" type="line" smooth="yes"/>
			<point x="568" y="1216"/>
			<point x="580" y="1227"/>
			<point x="600" y="1234" type="curve" smooth="yes"/>
			<point x="624" y="1243"/>
			<point x="640" y="1243"/>
		</contour>
		<contour>
			<point x="179" y="757" type="line" smooth="yes"/>
			<point x="141" y="757"/>
			<point x="104" y="782"/>
			<point x="104" y="819" type="curve" smooth="yes"/>
			<point x="104" y="856"/>
			<point x="141" y="882"/>
			<point x="179" y="882" type="curve" smooth="yes"/>
			<point x="691" y="882" type="line" smooth="yes"/>
			<point x="729" y="882"/>
			<point x="766" y="856"/>
			<point x="766" y="819" type="curve" smooth="yes"/>
			<point x="766" y="782"/>
			<point x="729" y="757"/>
			<point x="691" y="757" type="curve" smooth="yes"/>
		</contour>
		<contour>
			<point x="176" y="343" type="line" smooth="yes"/>
			<point x="137" y="343"/>
			<point x="100" y="370"/>
			<point x="100" y="408" type="curve" smooth="yes"/>
			<point x="100" y="446"/>
			<point x="137" y="473"/>
			<point x="176" y="473" type="curve" smooth="yes"/>
			<point x="690" y="473" type="line" smooth="yes"/>
			<point x="729" y="473"/>
			<point x="766" y="446"/>
			<point x="766" y="408" type="curve" smooth="yes"/>
			<point x="766" y="370"/>
			<point x="729" y="343"/>
			<point x="690" y="343" type="curve" smooth="yes"/>
		</contour>
	</outline>
</glyph>
