<?xml version="1.0" encoding="UTF-8"?>
<glyph name="p1l3u2" format="2">
	<advance width="1926"/>
	<outline>
		<contour>
			<point x="2006.4117431641" y="-694.065246582" type="curve" smooth="yes"/>
			<point x="2006.4117431641" y="-809.2057495117"/>
			<point x="1905.1130371094" y="-893.25"/>
			<point x="1777.6573486328" y="-893.25" type="curve" smooth="yes"/>
			<point x="1654.3090820312" y="-893.25"/>
			<point x="1568.6212158203" y="-834.0410766602"/>
			<point x="1534" y="-743" type="curve" smooth="yes"/>
			<point x="1523.2083740234" y="-714.7756958008"/>
			<point x="1517.2404785156" y="-689.996887207"/>
			<point x="1517.2404785156" y="-668.0916748047" type="curve" smooth="yes"/>
			<point x="1517.2404785156" y="-663.6090698242"/>
			<point x="1517.4903564453" y="-659.2468261719"/>
			<point x="1518" y="-655" type="curve" smooth="yes"/>
			<point x="1531" y="-522"/>
			<point x="1640" y="-438"/>
			<point x="1843" y="-401" type="curve"/>
			<point x="1865.3934326172" y="-398.4649047852"/>
			<point x="1887.1656494141" y="-397.2151489258"/>
			<point x="1908.2580566406" y="-397.2151489258" type="curve" smooth="yes"/>
			<point x="2132.6821289062" y="-397.2151489258"/>
			<point x="2280.1472167969" y="-538.700012207"/>
			<point x="2280.1472167969" y="-778.7846679688" type="curve" smooth="yes"/>
			<point x="2280.1472167969" y="-900.3497314453"/>
			<point x="2231.9916992188" y="-996.5488891602"/>
			<point x="2132" y="-1083" type="curve" smooth="yes"/>
			<point x="2064.4033203125" y="-1140.5075683594"/>
			<point x="1978.3057861328" y="-1170.0178222656"/>
			<point x="1872.2791748047" y="-1170.0178222656" type="curve" smooth="yes"/>
			<point x="1769.2120361328" y="-1170.0178222656"/>
			<point x="1653.4876708984" y="-1129.0354003906"/>
			<point x="1528" y="-1049" type="curve" smooth="yes"/>
			<point x="1508.1733398438" y="-1036.4625244141"/>
			<point x="1499.9083251953" y="-1018.0592651367"/>
			<point x="1499.9083251953" y="-999.3919677734" type="curve" smooth="yes"/>
			<point x="1499.9083251953" y="-964.4241943359"/>
			<point x="1528.9095458984" y="-928.5300292969"/>
			<point x="1565.2432861328" y="-928.5300292969" type="curve" smooth="yes"/>
			<point x="1576.0377197266" y="-928.5300292969"/>
			<point x="1587.4793701172" y="-931.6981811523"/>
			<point x="1599" y="-939" type="curve" smooth="yes"/>
			<point x="1699.8892822266" y="-1003.8936157227"/>
			<point x="1799.7504882812" y="-1040.7709960938"/>
			<point x="1887.6375732422" y="-1040.7709960938" type="curve" smooth="yes"/>
			<point x="1973.1041259766" y="-1040.7709960938"/>
			<point x="2047.2470703125" y="-1005.8969116211"/>
			<point x="2100" y="-928" type="curve" smooth="yes"/>
			<point x="2131.9367675781" y="-881.125"/>
			<point x="2149.5454101562" y="-820.1870727539"/>
			<point x="2149.5454101562" y="-760.2208251953" type="curve" smooth="yes"/>
			<point x="2149.5454101562" y="-632.9465942383"/>
			<point x="2073.1804199219" y="-544.1447143555"/>
			<point x="1953" y="-531" type="curve"/>
			<point x="1989.3081054688" y="-588.2861938477"/>
			<point x="2006.4117431641" y="-644.1076049805"/>
		</contour>
		<contour>
			<point x="1648" y="-648" type="curve" smooth="yes"/>
			<point x="1648" y="-721.133605957"/>
			<point x="1700.5424804688" y="-765.5625"/>
			<point x="1781.5549316406" y="-765.5625" type="curve" smooth="yes"/>
			<point x="1799.359375" y="-765.5625"/>
			<point x="1815" y="-762.0416870117"/>
			<point x="1828" y="-755" type="curve" smooth="yes"/>
			<point x="1861.3092041016" y="-736.9949951172"/>
			<point x="1877.5989990234" y="-731.1467895508"/>
			<point x="1877.5989990234" y="-698.0565795898" type="curve" smooth="yes"/>
			<point x="1877.5989990234" y="-645.5006103516"/>
			<point x="1850.5216064453" y="-600.9528198242"/>
			<point x="1798" y="-542" type="curve"/>
			<point x="1757" y="-554"/>
			<point x="1648" y="-600"/>
		</contour>
		<contour>
			<point x="1577.3082275391" y="-499.1109924316" type="curve" smooth="yes"/>
			<point x="1665.0089111328" y="-499.1109924316"/>
			<point x="1697.88671875" y="-393.4032592773"/>
			<point x="1697.88671875" y="-284.109375" type="curve" smooth="yes"/>
			<point x="1697.88671875" y="-221.7936096191"/>
			<point x="1688.9896240234" y="-146.6268615723"/>
			<point x="1671" y="-59" type="curve" smooth="yes"/>
			<point x="1669.9920654297" y="-54.0518074036"/>
			<point x="1669.5130615234" y="-49.1120109558"/>
			<point x="1669.5130615234" y="-44.2475509644" type="curve" smooth="yes"/>
			<point x="1669.5130615234" y="-7.894370079"/>
			<point x="1696.2634277344" y="24.2514038086"/>
			<point x="1728.8907470703" y="24.2514038086" type="curve" smooth="yes"/>
			<point x="1760.0460205078" y="24.2514038086"/>
			<point x="1783.0275878906" y="-2.1241402626"/>
			<point x="1789" y="-29" type="curve" smooth="yes"/>
			<point x="1808.0916748047" y="-123.7237854004"/>
			<point x="1817.6126708984" y="-207.9334411621"/>
			<point x="1817.6126708984" y="-281.4804992676" type="curve" smooth="yes"/>
			<point x="1817.6126708984" y="-408.2542114258"/>
			<point x="1789.3239746094" y="-503.3475036621"/>
			<point x="1733" y="-566" type="curve" smooth="yes"/>
			<point x="1691.09765625" y="-613.0482788086"/>
			<point x="1641.6293945312" y="-635.7778930664"/>
			<point x="1583.80078125" y="-635.7778930664" type="curve" smooth="yes"/>
			<point x="1562.9649658203" y="-635.7778930664"/>
			<point x="1541.0437011719" y="-632.8271484375"/>
			<point x="1518" y="-627" type="curve" smooth="yes"/>
			<point x="1386" y="-593"/>
			<point x="1265" y="-497"/>
			<point x="1155" y="-339" type="curve" smooth="yes"/>
			<point x="1113" y="-284"/>
			<point x="1069" y="-239"/>
			<point x="1023" y="-203" type="curve"/>
			<point x="1037.8388671875" y="-248.2121429443"/>
			<point x="1044.5603027344" y="-290.1988220215"/>
			<point x="1044.5603027344" y="-328.723236084" type="curve" smooth="yes"/>
			<point x="1044.5603027344" y="-456.3545837402"/>
			<point x="970.7860107422" y="-545.9840087891"/>
			<point x="874" y="-589" type="curve" smooth="yes"/>
			<point x="838.7817382812" y="-604.376953125"/>
			<point x="802.5793457031" y="-612.1264648438"/>
			<point x="765.270690918" y="-612.1264648438" type="curve" smooth="yes"/>
			<point x="727.3650512695" y="-612.1264648438"/>
			<point x="688.3175048828" y="-604.1270141602"/>
			<point x="648" y="-588" type="curve" smooth="yes"/>
			<point x="568" y="-556"/>
			<point x="504" y="-487"/>
			<point x="456" y="-380" type="curve"/>
			<point x="444.5252685547" y="-344.6578063965"/>
			<point x="439.2653198242" y="-311.0009765625"/>
			<point x="439.2653198242" y="-279.259185791" type="curve" smooth="yes"/>
			<point x="439.2653198242" y="-110.1520233154"/>
			<point x="597.7910766602" y="26.3999996185"/>
			<point x="774.1040039062" y="26.3999996185" type="curve" smooth="yes"/>
			<point x="820.2800292969" y="26.3999996185"/>
			<point x="868.5999755859" y="17.6000003815"/>
			<point x="919" y="0" type="curve" smooth="yes"/>
			<point x="1045" y="-44"/>
			<point x="1155" y="-128"/>
			<point x="1249" y="-253" type="curve" smooth="yes"/>
			<point x="1309" y="-339"/>
			<point x="1372" y="-403"/>
			<point x="1437" y="-445" type="curve" smooth="yes"/>
			<point x="1492.5572509766" y="-481.0485534668"/>
			<point x="1539.3011474609" y="-499.1109924316"/>
		</contour>
		<contour>
			<point x="755" y="-114" type="curve"/>
			<point x="663.6187133789" y="-120.3754425049"/>
			<point x="562.8693237305" y="-182.4899139404"/>
			<point x="562.8693237305" y="-281.8725891113" type="curve" smooth="yes"/>
			<point x="562.8693237305" y="-296.3257446289"/>
			<point x="564.8217163086" y="-311.7045898438"/>
			<point x="569" y="-328" type="curve"/>
			<point x="613.1999511719" y="-423.4317016602"/>
			<point x="678.6877441406" y="-477.1613464355"/>
			<point x="768.3373413086" y="-477.1613464355" type="curve" smooth="yes"/>
			<point x="842.8881835938" y="-477.1613464355"/>
			<point x="923.1329345703" y="-411.0767822266"/>
			<point x="923.1329345703" y="-339.0648193359" type="curve" smooth="yes"/>
			<point x="923.1329345703" y="-266.4227294922"/>
			<point x="899.7194213867" y="-209.7033538818"/>
			<point x="865" y="-173" type="curve" smooth="yes"/>
			<point x="830" y="-136"/>
			<point x="805" y="-118"/>
			<point x="791" y="-117" type="curve"/>
			<point x="779" y="-120"/>
			<point x="766" y="-119"/>
		</contour>
		<contour>
			<point x="728.5236206055" y="414.8346252441" type="curve" smooth="yes"/>
			<point x="728.5236206055" y="489.5746154785"/>
			<point x="656.9291381836" y="512.4000244141"/>
			<point x="559.4400024414" y="512.4000244141" type="curve" smooth="yes"/>
			<point x="504.8800048828" y="512.4000244141"/>
			<point x="448.3999938965" y="499.6000061035"/>
			<point x="390" y="474" type="curve" smooth="yes"/>
			<point x="292.4225463867" y="431.2768859863"/>
			<point x="242.9735107422" y="375.2002563477"/>
			<point x="242.9735107422" y="308.8514709473" type="curve" smooth="yes"/>
			<point x="242.9735107422" y="249.4076385498"/>
			<point x="282.6657714844" y="181.7184753418"/>
			<point x="363" y="108" type="curve" smooth="yes"/>
			<point x="377.1679077148" y="95.1814193726"/>
			<point x="383.4841308594" y="78.3801040649"/>
			<point x="383.4841308594" y="61.6649475098" type="curve" smooth="yes"/>
			<point x="383.4841308594" y="8.5443782806"/>
			<point x="318.4207763672" y="-28.0807113647"/>
			<point x="275" y="12" type="curve" smooth="yes"/>
			<point x="166.342956543" y="112.414100647"/>
			<point x="111.5936279297" y="210.5820465088"/>
			<point x="111.5936279297" y="306.0830383301" type="curve" smooth="yes"/>
			<point x="111.5936279297" y="338.0256347656"/>
			<point x="117.7185897827" y="369.6698608398"/>
			<point x="130" y="401" type="curve" smooth="yes"/>
			<point x="162" y="483"/>
			<point x="228" y="546"/>
			<point x="328" y="590" type="curve" smooth="yes"/>
			<point x="405.9577331543" y="624.3013916016"/>
			<point x="485.7386779785" y="640.9783325195"/>
			<point x="565.9215087891" y="640.9783325195" type="curve" smooth="yes"/>
			<point x="704.7636108398" y="640.9783325195"/>
			<point x="798.3988037109" y="597.72265625"/>
			<point x="841" y="504" type="curve" smooth="yes"/>
			<point x="853.0054321289" y="477.1793518066"/>
			<point x="859.0081787109" y="448.4665222168"/>
			<point x="859.0081787109" y="417.8615722656" type="curve" smooth="yes"/>
			<point x="859.0081787109" y="328.6513061523"/>
			<point x="808.0054321289" y="223.3641357422"/>
			<point x="706" y="102" type="curve"/>
			<point x="748.3529663086" y="102"/>
			<point x="853.5986328125" y="109.0865020752"/>
			<point x="900.849609375" y="109.0865020752" type="curve" smooth="yes"/>
			<point x="975.7592773438" y="109.0865020752"/>
			<point x="1047.8488769531" y="106.365852356"/>
			<point x="1112.7180175781" y="106.365852356" type="curve" smooth="yes"/>
			<point x="1478.9791259766" y="106.365852356"/>
			<point x="1671.0731201172" y="136.2438964844"/>
			<point x="1689" y="196" type="curve" smooth="yes"/>
			<point x="1693.2249755859" y="209.9750061035"/>
			<point x="1695.3375244141" y="226.1681213379"/>
			<point x="1695.3375244141" y="244.5793762207" type="curve" smooth="yes"/>
			<point x="1695.3375244141" y="282.8181152344"/>
			<point x="1686.2249755859" y="330.625"/>
			<point x="1668" y="388" type="curve"/>
			<point x="1667" y="389"/>
			<point x="1667" y="391"/>
			<point x="1667" y="393" type="curve"/>
			<point x="1630.8000488281" y="545.4576416016"/>
			<point x="1612.5313720703" y="683.8610229492"/>
			<point x="1612.5313720703" y="808.8848876953" type="curve" smooth="yes"/>
			<point x="1612.5313720703" y="863.4533691406"/>
			<point x="1616.0114746094" y="915.4730224609"/>
			<point x="1623" y="965" type="curve" smooth="yes"/>
			<point x="1628.01953125" y="998.2543334961"/>
			<point x="1658.2346191406" y="1019.6982421875"/>
			<point x="1688.697265625" y="1019.6982421875" type="curve" smooth="yes"/>
			<point x="1723.3841552734" y="1019.6982421875"/>
			<point x="1756.5002441406" y="985.2517700195"/>
			<point x="1752" y="947" type="curve" smooth="yes"/>
			<point x="1746.0920410156" y="903.8714599609"/>
			<point x="1743.1508789062" y="858.299621582"/>
			<point x="1743.1508789062" y="810.3101806641" type="curve" smooth="yes"/>
			<point x="1743.1508789062" y="695.8444213867"/>
			<point x="1759.8837890625" y="567.6243896484"/>
			<point x="1793" y="426" type="curve"/>
			<point x="1814.6336669922" y="356.8430175781"/>
			<point x="1825.4505615234" y="296.3646850586"/>
			<point x="1825.4505615234" y="244.5650024414" type="curve" smooth="yes"/>
			<point x="1825.4505615234" y="150.3065490723"/>
			<point x="1789.6336669922" y="84.7848815918"/>
			<point x="1718" y="48" type="curve" smooth="yes"/>
			<point x="1674" y="25"/>
			<point x="1625" y="10"/>
			<point x="1572" y="1" type="curve" smooth="yes"/>
			<point x="1519" y="-8"/>
			<point x="1210" y="-16"/>
			<point x="645" y="-25" type="curve"/>
			<point x="592.7305297852" y="-18.6643066406"/>
			<point x="541.6500244141" y="15.9852056503"/>
			<point x="541.6500244141" y="70.1066665649" type="curve" smooth="yes"/>
			<point x="541.6500244141" y="97.8355560303"/>
			<point x="556.0999755859" y="128.1333312988"/>
			<point x="585" y="161" type="curve" smooth="yes"/>
			<point x="680.682434082" y="267.9391784668"/>
			<point x="728.5236206055" y="352.897277832"/>
		</contour>
	</outline>
</glyph>
