<?xml version="1.0" encoding="UTF-8"?>
<glyph name="p2l3u2" format="2">
	<advance width="2126"/>
	<outline>
		<contour>
			<point x="2053.4116210938" y="-724.065246582" type="curve" smooth="yes"/>
			<point x="2053.4116210938" y="-839.2057495117"/>
			<point x="1952.1130371094" y="-923.25"/>
			<point x="1824.6573486328" y="-923.25" type="curve" smooth="yes"/>
			<point x="1701.3090820312" y="-923.25"/>
			<point x="1615.6212158203" y="-864.0410766602"/>
			<point x="1581" y="-773" type="curve" smooth="yes"/>
			<point x="1570.2083740234" y="-744.7756958008"/>
			<point x="1564.2404785156" y="-719.996887207"/>
			<point x="1564.2404785156" y="-698.0916748047" type="curve" smooth="yes"/>
			<point x="1564.2404785156" y="-693.6090698242"/>
			<point x="1564.4903564453" y="-689.2468261719"/>
			<point x="1565" y="-685" type="curve" smooth="yes"/>
			<point x="1578" y="-552"/>
			<point x="1687" y="-468"/>
			<point x="1890" y="-431" type="curve"/>
			<point x="1912.3934326172" y="-428.4649047852"/>
			<point x="1934.1585693359" y="-427.2151489258"/>
			<point x="1955.2379150391" y="-427.2151489258" type="curve" smooth="yes"/>
			<point x="2179.5007324219" y="-427.2151489258"/>
			<point x="2326.1479492188" y="-568.6721191406"/>
			<point x="2326.1479492188" y="-808.7135620117" type="curve" smooth="yes"/>
			<point x="2326.1479492188" y="-930.2823486328"/>
			<point x="2278.9899902344" y="-1026.5504150391"/>
			<point x="2179" y="-1113" type="curve" smooth="yes"/>
			<point x="2111.4040527344" y="-1170.5069580078"/>
			<point x="2024.2991943359" y="-1200.0178222656"/>
			<point x="1918.2795410156" y="-1200.0178222656" type="curve" smooth="yes"/>
			<point x="1815.2357177734" y="-1200.0178222656"/>
			<point x="1700.4876708984" y="-1159.0354003906"/>
			<point x="1575" y="-1079" type="curve" smooth="yes"/>
			<point x="1555.1733398438" y="-1066.4625244141"/>
			<point x="1546.9083251953" y="-1048.0593261719"/>
			<point x="1546.9083251953" y="-1029.3919677734" type="curve" smooth="yes"/>
			<point x="1546.9083251953" y="-994.4241943359"/>
			<point x="1575.9095458984" y="-958.5300292969"/>
			<point x="1612.2432861328" y="-958.5300292969" type="curve" smooth="yes"/>
			<point x="1623.0377197266" y="-958.5300292969"/>
			<point x="1634.4793701172" y="-961.6981811523"/>
			<point x="1646" y="-969" type="curve" smooth="yes"/>
			<point x="1746.8892822266" y="-1033.8936767578"/>
			<point x="1846.4934082031" y="-1070.7709960938"/>
			<point x="1934.1270751953" y="-1070.7709960938" type="curve" smooth="yes"/>
			<point x="2019.3471679688" y="-1070.7709960938"/>
			<point x="2093.2470703125" y="-1035.8969726562"/>
			<point x="2146" y="-958" type="curve" smooth="yes"/>
			<point x="2178.40234375" y="-910.4417114258"/>
			<point x="2196.6020507812" y="-848.4074707031"/>
			<point x="2196.6020507812" y="-787.5990600586" type="curve" smooth="yes"/>
			<point x="2196.6020507812" y="-660.2944946289"/>
			<point x="2119.6469726562" y="-574.0863647461"/>
			<point x="2000" y="-561" type="curve"/>
			<point x="2036.3081054688" y="-618.2861938477"/>
			<point x="2053.4116210938" y="-674.1076049805"/>
		</contour>
		<contour>
			<point x="1695" y="-678" type="curve" smooth="yes"/>
			<point x="1695" y="-750.8943481445"/>
			<point x="1747.3912353516" y="-795.5625"/>
			<point x="1828.1173095703" y="-795.5625" type="curve" smooth="yes"/>
			<point x="1845.6528320312" y="-795.5625"/>
			<point x="1861" y="-792.0416870117"/>
			<point x="1874" y="-785" type="curve" smooth="yes"/>
			<point x="1907.4681396484" y="-766.9091186523"/>
			<point x="1924.572265625" y="-761.0912475586"/>
			<point x="1924.572265625" y="-727.5809936523" type="curve" smooth="yes"/>
			<point x="1924.572265625" y="-675.5142822266"/>
			<point x="1897.3331298828" y="-630.7413330078"/>
			<point x="1845" y="-572" type="curve"/>
			<point x="1804" y="-584"/>
			<point x="1695" y="-630"/>
		</contour>
		<contour>
			<point x="1725.1556396484" y="-471.6434326172" type="curve" smooth="yes"/>
			<point x="1816.4271240234" y="-471.6434326172"/>
			<point x="1853.5434570312" y="-376.2742004395"/>
			<point x="1853.5434570312" y="-266.3356628418" type="curve" smooth="yes"/>
			<point x="1853.5434570312" y="-206.8987426758"/>
			<point x="1844.1594238281" y="-135.1854248047"/>
			<point x="1825" y="-51" type="curve" smooth="yes"/>
			<point x="1823.6844482422" y="-45.3224334717"/>
			<point x="1823.0688476562" y="-39.9037437439"/>
			<point x="1823.0688476562" y="-34.7625160217" type="curve" smooth="yes"/>
			<point x="1823.0688476562" y="3.3871517181"/>
			<point x="1856.9653320312" y="26.2592868805"/>
			<point x="1890.3114013672" y="26.2592868805" type="curve" smooth="yes"/>
			<point x="1917.3756103516" y="26.2592868805"/>
			<point x="1944.0772705078" y="11.1929512024"/>
			<point x="1952" y="-23" type="curve" smooth="yes"/>
			<point x="1972.1666259766" y="-113.5666656494"/>
			<point x="1982.25" y="-193.7811126709"/>
			<point x="1982.25" y="-263.7419128418" type="curve" smooth="yes"/>
			<point x="1982.25" y="-384.5833435059"/>
			<point x="1952.1666259766" y="-474.8333435059"/>
			<point x="1892" y="-535" type="curve" smooth="yes"/>
			<point x="1846.9088134766" y="-580.0912475586"/>
			<point x="1793.6213378906" y="-602.2329101562"/>
			<point x="1731.3297119141" y="-602.2329101562" type="curve" smooth="yes"/>
			<point x="1709.3524169922" y="-602.2329101562"/>
			<point x="1686.2543945312" y="-599.4768066406"/>
			<point x="1662" y="-594" type="curve" smooth="yes"/>
			<point x="1521" y="-561"/>
			<point x="1392" y="-470"/>
			<point x="1274" y="-319" type="curve" smooth="yes"/>
			<point x="1229" y="-266"/>
			<point x="1182" y="-223"/>
			<point x="1133" y="-189" type="curve"/>
			<point x="1149.2016601562" y="-232.8130493164"/>
			<point x="1156.4470214844" y="-273.1372680664"/>
			<point x="1156.4470214844" y="-309.889465332" type="curve" smooth="yes"/>
			<point x="1156.4470214844" y="-434.1949157715"/>
			<point x="1073.5631103516" y="-517.6378173828"/>
			<point x="974" y="-557" type="curve" smooth="yes"/>
			<point x="936.6331787109" y="-571.7500610352"/>
			<point x="898.2993774414" y="-579.0062255859"/>
			<point x="858.8797607422" y="-579.0062255859" type="curve" smooth="yes"/>
			<point x="818.1242675781" y="-579.0062255859"/>
			<point x="776.2081298828" y="-571.2499389648"/>
			<point x="733" y="-556" type="curve" smooth="yes"/>
			<point x="648" y="-526"/>
			<point x="579" y="-460"/>
			<point x="528" y="-358" type="curve"/>
			<point x="517.1429443359" y="-327.600189209"/>
			<point x="511.5247802734" y="-296.6764526367"/>
			<point x="511.5247802734" y="-265.6080627441" type="curve" smooth="yes"/>
			<point x="511.5247802734" y="-93.5764160156"/>
			<point x="682.3325805664" y="30.3768253326"/>
			<point x="866.2901000977" y="30.3768253326" type="curve" smooth="yes"/>
			<point x="915.8092651367" y="30.3768253326"/>
			<point x="967.6908569336" y="21.8961811066"/>
			<point x="1022" y="5" type="curve" smooth="yes"/>
			<point x="1157" y="-37"/>
			<point x="1274" y="-118"/>
			<point x="1375" y="-237" type="curve" smooth="yes"/>
			<point x="1439" y="-319"/>
			<point x="1506" y="-380"/>
			<point x="1575" y="-420" type="curve" smooth="yes"/>
			<point x="1634.4187011719" y="-454.3779907227"/>
			<point x="1684.4705810547" y="-471.6434326172"/>
		</contour>
		<contour>
			<point x="847" y="-104" type="curve"/>
			<point x="755.0297851562" y="-109.9980545044"/>
			<point x="641.2246704102" y="-164.9879608154"/>
			<point x="641.2246704102" y="-263.0869445801" type="curve" smooth="yes"/>
			<point x="641.2246704102" y="-277.0599060059"/>
			<point x="643.3746948242" y="-292.0216369629"/>
			<point x="648" y="-308" type="curve"/>
			<point x="695.3075561523" y="-399.595489502"/>
			<point x="765.2222900391" y="-450.1779174805"/>
			<point x="861.1018676758" y="-450.1779174805" type="curve" smooth="yes"/>
			<point x="937.084777832" y="-450.1779174805"/>
			<point x="1026.1197509766" y="-390.2895812988"/>
			<point x="1026.1197509766" y="-318.553894043" type="curve" smooth="yes"/>
			<point x="1026.1197509766" y="-249.916809082"/>
			<point x="1001.6430053711" y="-194.6712036133"/>
			<point x="964" y="-160" type="curve" smooth="yes"/>
			<point x="926" y="-125"/>
			<point x="900" y="-108"/>
			<point x="885" y="-107" type="curve"/>
			<point x="872" y="-110"/>
			<point x="859" y="-109"/>
		</contour>
		<contour>
			<point x="365.8174438477" y="51.6329841614" type="curve" smooth="yes"/>
			<point x="365.8174438477" y="15.4592323303"/>
			<point x="335.3724975586" y="-13.0293035507"/>
			<point x="299.9058227539" y="-13.0293035507" type="curve" smooth="yes"/>
			<point x="284.6333618164" y="-13.0293035507"/>
			<point x="269.2682189941" y="-7.9050951004"/>
			<point x="257" y="3" type="curve" smooth="yes"/>
			<point x="152.4526062012" y="99.1530761719"/>
			<point x="99.7345123291" y="195.3061523438"/>
			<point x="99.7345123291" y="291.9036254883" type="curve" smooth="yes"/>
			<point x="99.7345123291" y="321.8884887695"/>
			<point x="104.8141479492" y="351.9161987305"/>
			<point x="115" y="382" type="curve" smooth="yes"/>
			<point x="143" y="465"/>
			<point x="204" y="532"/>
			<point x="298" y="582" type="curve" smooth="yes"/>
			<point x="377.4526062012" y="624.2620239258"/>
			<point x="461.1918029785" y="645.0911254883"/>
			<point x="547.4060058594" y="645.0911254883" type="curve" smooth="yes"/>
			<point x="678.9180908203" y="645.0911254883"/>
			<point x="764.9194335938" y="601.3095092773"/>
			<point x="812" y="506" type="curve" smooth="yes"/>
			<point x="829.3985595703" y="470.8478393555"/>
			<point x="838.0978393555" y="431.6611938477"/>
			<point x="838.0978393555" y="388.5296630859" type="curve" smooth="yes"/>
			<point x="838.0978393555" y="310.1887207031"/>
			<point x="809.3985595703" y="218.8333282471"/>
			<point x="752" y="115" type="curve"/>
			<point x="1214" y="112" type="line"/>
			<point x="1114.4041748047" y="212.6121520996"/>
			<point x="1059.7863769531" y="354.4583129883"/>
			<point x="1059.7863769531" y="534.0472412109" type="curve" smooth="yes"/>
			<point x="1059.7863769531" y="773.6184692383"/>
			<point x="1222.9385986328" y="955.1632080078"/>
			<point x="1412" y="1011" type="curve" smooth="yes"/>
			<point x="1449.1520996094" y="1021.9270629883"/>
			<point x="1486.3040771484" y="1027.4147949219"/>
			<point x="1523.4561767578" y="1027.4147949219" type="curve"/>
			<point x="1718" y="977" type="line"/>
			<point x="1820" y="924"/>
			<point x="1897" y="827"/>
			<point x="1952" y="684" type="curve" smooth="yes"/>
			<point x="1992.8460693359" y="577.4556884766"/>
			<point x="2012.0772705078" y="480.7198791504"/>
			<point x="2012.0772705078" y="395.4163208008" type="curve" smooth="yes"/>
			<point x="2012.0772705078" y="134.0430297852"/>
			<point x="1831.5284423828" y="-20"/>
			<point x="1539" y="-20" type="curve" smooth="yes"/>
			<point x="637" y="-14" type="line" smooth="yes"/>
			<point x="605" y="-14"/>
			<point x="580" y="9"/>
			<point x="574" y="38" type="curve" smooth="yes"/>
			<point x="570" y="56"/>
			<point x="570" y="70"/>
			<point x="576" y="78" type="curve" smooth="yes"/>
			<point x="626.1532592773" y="144.8709869385"/>
			<point x="708.0024414062" y="273.3971252441"/>
			<point x="708.0024414062" y="387.7331848145" type="curve" smooth="yes"/>
			<point x="708.0024414062" y="476.4405517578"/>
			<point x="646.6426391602" y="515.1221313477"/>
			<point x="545.5376586914" y="515.1221313477" type="curve" smooth="yes"/>
			<point x="413.2421569824" y="515.1221313477"/>
			<point x="269.8606872559" y="433.7078857422"/>
			<point x="238" y="340" type="curve" smooth="yes"/>
			<point x="232.8684082031" y="325.0157775879"/>
			<point x="230.3069458008" y="309.6944885254"/>
			<point x="230.3069458008" y="294.0534362793" type="curve" smooth="yes"/>
			<point x="230.3069458008" y="233.4945373535"/>
			<point x="268.705291748" y="168.1420898438"/>
			<point x="345" y="99" type="curve" smooth="yes"/>
			<point x="358.7790527344" y="86.8108291626"/>
			<point x="365.8174438477" y="69.2852783203"/>
		</contour>
		<contour>
			<point x="1539" y="110" type="line" smooth="yes"/>
			<point x="1731.2552490234" y="110"/>
			<point x="1885.7795410156" y="195.9794311523"/>
			<point x="1885.7795410156" y="387.2126159668" type="curve" smooth="yes"/>
			<point x="1885.7795410156" y="457.1531982422"/>
			<point x="1867.1585693359" y="540.3878173828"/>
			<point x="1830" y="637" type="curve" smooth="yes"/>
			<point x="1769" y="796"/>
			<point x="1676" y="882"/>
			<point x="1550" y="895" type="curve" smooth="yes"/>
			<point x="1540.5073242188" y="896.0149536133"/>
			<point x="1531.0859375" y="896.5059204102"/>
			<point x="1521.7524414062" y="896.5059204102" type="curve" smooth="yes"/>
			<point x="1374.7520751953" y="896.5059204102"/>
			<point x="1249.5522460938" y="774.7163085938"/>
			<point x="1211" y="660" type="curve" smooth="yes"/>
			<point x="1196.8096923828" y="617.4292602539"/>
			<point x="1189.611328125" y="571.3626098633"/>
			<point x="1189.611328125" y="522.4202270508" type="curve" smooth="yes"/>
			<point x="1189.611328125" y="375.3048400879"/>
			<point x="1241.2364501953" y="241.7449035645"/>
			<point x="1333" y="181" type="curve" smooth="yes"/>
			<point x="1346.9288330078" y="171.9871826172"/>
			<point x="1358.84375" y="150.8904571533"/>
			<point x="1358.84375" y="127.0606689453" type="curve" smooth="yes"/>
			<point x="1358.84375" y="121.8065643311"/>
			<point x="1358.2645263672" y="116.4196014404"/>
			<point x="1357" y="111" type="curve"/>
		</contour>
	</outline>
</glyph>
