<?xml version="1.0" encoding="UTF-8"?>
<glyph name="t1r3u1" format="2">
	<advance width="1450"/>
	<outline>
		<contour>
			<point x="1582.9675292969" y="-358.3319396973" type="curve" smooth="yes"/>
			<point x="1582.9675292969" y="-518.176574707"/>
			<point x="1452.4205322266" y="-617.9940185547"/>
			<point x="1287.0187988281" y="-617.9940185547" type="curve" smooth="yes"/>
			<point x="1141.9187011719" y="-617.9940185547"/>
			<point x="1047.0970458984" y="-549.9443359375"/>
			<point x="1002" y="-443" type="curve" smooth="yes"/>
			<point x="985.2711791992" y="-403.0366821289"/>
			<point x="976.8919067383" y="-359.8103027344"/>
			<point x="976.8919067383" y="-313.2614135742" type="curve" smooth="yes"/>
			<point x="976.8919067383" y="-209.5524139404"/>
			<point x="1018.4849853516" y="-89.3511428833"/>
			<point x="1102" y="48" type="curve" smooth="yes"/>
			<point x="1114.8846435547" y="69.2746200562"/>
			<point x="1134.0541992188" y="78.0690383911"/>
			<point x="1153.3748779297" y="78.0690383911" type="curve" smooth="yes"/>
			<point x="1188.1429443359" y="78.0690383911"/>
			<point x="1223.3999023438" y="49.5898590088"/>
			<point x="1223.3999023438" y="14.1103963852" type="curve" smooth="yes"/>
			<point x="1223.3999023438" y="3.5076854229"/>
			<point x="1220.2513427734" y="-7.7201910019"/>
			<point x="1213" y="-19" type="curve" smooth="yes"/>
			<point x="1142.0041503906" y="-135.6360015869"/>
			<point x="1106.6964111328" y="-232.8535308838"/>
			<point x="1106.6964111328" y="-311.0327758789" type="curve" smooth="yes"/>
			<point x="1106.6964111328" y="-422.1058349609"/>
			<point x="1174.6569824219" y="-487.9598693848"/>
			<point x="1286.7642822266" y="-487.9598693848" type="curve" smooth="yes"/>
			<point x="1375.4226074219" y="-487.9598693848"/>
			<point x="1453.1369628906" y="-439.4574584961"/>
			<point x="1453.1369628906" y="-357.8051147461" type="curve" smooth="yes"/>
			<point x="1453.1369628906" y="-279.250793457"/>
			<point x="1388.5108642578" y="-184.3157653809"/>
			<point x="1260" y="-73" type="curve" smooth="yes"/>
			<point x="1245.8094482422" y="-60.9926185608"/>
			<point x="1238.4703369141" y="-42.7296180725"/>
			<point x="1238.4703369141" y="-24.2265892029" type="curve" smooth="yes"/>
			<point x="1238.4703369141" y="12.0322475433"/>
			<point x="1267.5268554688" y="40.9614944458"/>
			<point x="1302.5140380859" y="40.9614944458" type="curve" smooth="yes"/>
			<point x="1318.5708007812" y="40.9614944458"/>
			<point x="1334.9216308594" y="35.1441688538"/>
			<point x="1348" y="23" type="curve" smooth="yes"/>
			<point x="1504.6450195312" y="-112.4049987793"/>
			<point x="1582.9675292969" y="-239.9777526855"/>
		</contour>
		<contour>
			<point x="471.2563171387" y="674.391784668" type="curve" smooth="yes"/>
			<point x="471.2563171387" y="861.8856201172"/>
			<point x="659.4320678711" y="987.4426269531"/>
			<point x="854.3137207031" y="987.4426269531" type="curve" smooth="yes"/>
			<point x="991.1561279297" y="987.4426269531"/>
			<point x="1118.0983886719" y="932.2951049805"/>
			<point x="1236" y="822" type="curve" smooth="yes"/>
			<point x="1249.6666259766" y="809"/>
			<point x="1255.7778320312" y="792.4444580078"/>
			<point x="1255.7778320312" y="776.0740966797" type="curve" smooth="yes"/>
			<point x="1255.7778320312" y="723.3659057617"/>
			<point x="1190.9102783203" y="687.3905029297"/>
			<point x="1148" y="727" type="curve" smooth="yes"/>
			<point x="1054.1683349609" y="814.1293945312"/>
			<point x="954.8361816406" y="857.2552490234"/>
			<point x="851.7591552734" y="857.2552490234" type="curve" smooth="yes"/>
			<point x="770.5221557617" y="857.2552490234"/>
			<point x="708.2641601562" y="835.0583496094"/>
			<point x="662" y="793" type="curve" smooth="yes"/>
			<point x="620.1443481445" y="754.5266723633"/>
			<point x="600.2745361328" y="716.5895385742"/>
			<point x="600.2745361328" y="681.0779418945" type="curve" smooth="yes"/>
			<point x="600.2745361328" y="632.594909668"/>
			<point x="637.311340332" y="588.6329345703"/>
			<point x="706" y="554" type="curve" smooth="yes"/>
			<point x="754" y="530"/>
			<point x="825" y="509"/>
			<point x="919" y="494" type="curve" smooth="yes"/>
			<point x="1013" y="479"/>
			<point x="1085" y="465"/>
			<point x="1136" y="452" type="curve" smooth="yes"/>
			<point x="1187" y="439"/>
			<point x="1235" y="415"/>
			<point x="1281" y="378" type="curve" smooth="yes"/>
			<point x="1327" y="341"/>
			<point x="1350" y="286"/>
			<point x="1350" y="211" type="curve" smooth="yes"/>
			<point x="1350" y="123"/>
			<point x="1298" y="42"/>
			<point x="1219" y="-23" type="curve" smooth="yes"/>
			<point x="1105.3560791016" y="-115.1678848267"/>
			<point x="963.686706543" y="-160.8935699463"/>
			<point x="793.9918823242" y="-160.8935699463" type="curve" smooth="yes"/>
			<point x="617.005859375" y="-160.8935699463"/>
			<point x="495.6027526855" y="-112.7592163086"/>
			<point x="356" y="-2" type="curve" smooth="yes"/>
			<point x="235" y="94"/>
			<point x="155" y="212"/>
			<point x="117" y="350" type="curve" smooth="yes"/>
			<point x="105.4026260376" y="392.5237121582"/>
			<point x="99.5246963501" y="436.1543884277"/>
			<point x="99.5246963501" y="480.8920593262" type="curve" smooth="yes"/>
			<point x="99.5246963501" y="540.3087768555"/>
			<point x="109.8926925659" y="601.6781005859"/>
			<point x="131" y="665" type="curve" smooth="yes"/>
			<point x="168" y="776"/>
			<point x="243" y="884"/>
			<point x="356" y="989" type="curve" smooth="yes"/>
			<point x="369.6596374512" y="1001.5755615234"/>
			<point x="384.353515625" y="1006.864440918"/>
			<point x="398.3794250488" y="1006.864440918" type="curve" smooth="yes"/>
			<point x="433.5114440918" y="1006.864440918"/>
			<point x="464.4526062012" y="973.6820678711"/>
			<point x="464.4526062012" y="938.7129516602" type="curve" smooth="yes"/>
			<point x="464.4526062012" y="923.2536621094"/>
			<point x="458.4054870605" y="907.4451293945"/>
			<point x="444" y="894" type="curve" smooth="yes"/>
			<point x="347" y="804"/>
			<point x="285" y="715"/>
			<point x="256" y="627" type="curve" smooth="yes"/>
			<point x="238.9802246094" y="575.3537597656"/>
			<point x="230.5714111328" y="526.1186523438"/>
			<point x="230.5714111328" y="479.4967041016" type="curve" smooth="yes"/>
			<point x="230.5714111328" y="446.6795349121"/>
			<point x="234.73777771" y="415.1571350098"/>
			<point x="243" y="385" type="curve" smooth="yes"/>
			<point x="274" y="274"/>
			<point x="338" y="178"/>
			<point x="437" y="99" type="curve" smooth="yes"/>
			<point x="552.756652832" y="6.6285300255"/>
			<point x="650.3141479492" y="-30.6639328003"/>
			<point x="794.0573120117" y="-30.6639328003" type="curve" smooth="yes"/>
			<point x="932.8804321289" y="-30.6639328003"/>
			<point x="1047.1947021484" y="5.08872509"/>
			<point x="1137" y="78" type="curve" smooth="yes"/>
			<point x="1188" y="120"/>
			<point x="1216" y="165"/>
			<point x="1220" y="213" type="curve"/>
			<point x="1219" y="269"/>
			<point x="1179" y="308"/>
			<point x="1099" y="328" type="curve" smooth="yes"/>
			<point x="1055" y="339"/>
			<point x="985" y="352"/>
			<point x="886" y="368" type="curve" smooth="yes"/>
			<point x="684.1338500977" y="400.9577331543"/>
			<point x="471.2563171387" y="486.1272277832"/>
		</contour>
	</outline>
</glyph>
