<?xml version="1.0" encoding="UTF-8"?>
<glyph name="z1u1" format="2">
	<advance width="2137"/>
	<outline>
		<contour>
			<point x="1329.8779296875" y="-398.1071472168" type="curve" smooth="yes"/>
			<point x="1423.1348876953" y="-398.1071472168"/>
			<point x="1962.2021484375" y="-369"/>
			<point x="2051" y="-369" type="curve" smooth="yes"/>
			<point x="2099" y="-369"/>
			<point x="2132" y="-391"/>
			<point x="2132" y="-434" type="curve" smooth="yes"/>
			<point x="2132" y="-476"/>
			<point x="2100" y="-499"/>
			<point x="2053" y="-499" type="curve" smooth="yes"/>
			<point x="2026" y="-499"/>
			<point x="1906" y="-505"/>
			<point x="1694" y="-516" type="curve" smooth="yes"/>
			<point x="1532.9584960938" y="-524.3558959961"/>
			<point x="1414.0407714844" y="-528.0955810547"/>
			<point x="1337.2467041016" y="-528.0955810547" type="curve" smooth="yes"/>
			<point x="1169.5230712891" y="-528.0955810547"/>
			<point x="1036.8288574219" y="-495.5440368652"/>
			<point x="966" y="-427" type="curve" smooth="yes"/>
			<point x="931.9526977539" y="-394.050994873"/>
			<point x="915.0946044922" y="-360.197265625"/>
			<point x="915.0946044922" y="-325.4388427734" type="curve" smooth="yes"/>
			<point x="915.0946044922" y="-296.9023742676"/>
			<point x="926.4575195312" y="-267.756072998"/>
			<point x="949" y="-238" type="curve" smooth="yes"/>
			<point x="999" y="-172"/>
			<point x="1094" y="-127"/>
			<point x="1233" y="-104" type="curve"/>
			<point x="1236" y="-103"/>
			<point x="1245" y="-103"/>
			<point x="1263" y="-103" type="curve" smooth="yes"/>
			<point x="1498" y="-99"/>
			<point x="1681" y="-22"/>
			<point x="1778" y="95" type="curve" smooth="yes"/>
			<point x="1830.07421875" y="158.3569641113"/>
			<point x="1855.7844238281" y="226.9867401123"/>
			<point x="1855.7844238281" y="300.8892822266" type="curve" smooth="yes"/>
			<point x="1855.7844238281" y="460.5174865723"/>
			<point x="1761.1392822266" y="586.3529052734"/>
			<point x="1632" y="621" type="curve"/>
			<point x="1634.8372802734" y="599.829284668"/>
			<point x="1636.2456054688" y="578.4680786133"/>
			<point x="1636.2456054688" y="556.9266967773" type="curve" smooth="yes"/>
			<point x="1636.2456054688" y="479.7696838379"/>
			<point x="1618.1785888672" y="400.3015441895"/>
			<point x="1583" y="319" type="curve" smooth="yes"/>
			<point x="1531" y="182"/>
			<point x="1454" y="85"/>
			<point x="1351" y="27" type="curve" smooth="yes"/>
			<point x="1295.2634277344" y="-4.3726997375"/>
			<point x="1237.8559570312" y="-19.1482181549"/>
			<point x="1184.5771484375" y="-19.1482181549" type="curve" smooth="yes"/>
			<point x="1056.9278564453" y="-19.1482181549"/>
			<point x="952.2454223633" y="65.1884613037"/>
			<point x="952.2454223633" y="212.4862670898" type="curve" smooth="yes"/>
			<point x="952.2454223633" y="293.6398010254"/>
			<point x="984.4411621094" y="388.1774597168"/>
			<point x="1052" y="478" type="curve"/>
			<point x="1180" y="624"/>
			<point x="1311" y="713"/>
			<point x="1445" y="746" type="curve"/>
			<point x="1381.4295654297" y="830.3752441406"/>
			<point x="1293.8845214844" y="882.9632568359"/>
			<point x="1166.96875" y="882.9632568359" type="curve" smooth="yes"/>
			<point x="1098.8688964844" y="882.9632568359"/>
			<point x="1035.8970947266" y="862.3088378906"/>
			<point x="979" y="821" type="curve" smooth="yes"/>
			<point x="878" y="750"/>
			<point x="815" y="630"/>
			<point x="788" y="462" type="curve" smooth="yes"/>
			<point x="751" y="165"/>
			<point x="642" y="6"/>
			<point x="461" y="-13" type="curve"/>
			<point x="457" y="-14"/>
			<point x="453" y="-14"/>
			<point x="450" y="-13" type="curve"/>
			<point x="213.0023498535" y="4.855987072"/>
			<point x="99.8502044678" y="201.8926849365"/>
			<point x="99.8502044678" y="459.9486694336" type="curve" smooth="yes"/>
			<point x="99.8502044678" y="657.5966796875"/>
			<point x="158.1916503906" y="844.6720581055"/>
			<point x="234" y="964" type="curve" smooth="yes"/>
			<point x="244.8265075684" y="980.9163818359"/>
			<point x="267.099609375" y="993.7120361328"/>
			<point x="290.5953369141" y="993.7120361328" type="curve" smooth="yes"/>
			<point x="325.5516967773" y="993.7120361328"/>
			<point x="354.528717041" y="963.5846557617"/>
			<point x="354.528717041" y="935.1597290039" type="curve" smooth="yes"/>
			<point x="354.528717041" y="919.2225341797"/>
			<point x="347.9596557617" y="901.1098022461"/>
			<point x="335" y="881" type="curve" smooth="yes"/>
			<point x="278.2178955078" y="792.2481689453"/>
			<point x="230.5430908203" y="620.84765625"/>
			<point x="230.5430908203" y="462.728515625" type="curve" smooth="yes"/>
			<point x="230.5430908203" y="289.4724731445"/>
			<point x="287.7827148438" y="132.1623382568"/>
			<point x="453" y="117" type="curve"/>
			<point x="562" y="132"/>
			<point x="631" y="253"/>
			<point x="659" y="480" type="curve" smooth="yes"/>
			<point x="691" y="685"/>
			<point x="772" y="834"/>
			<point x="903" y="927" type="curve" smooth="yes"/>
			<point x="984.7282714844" y="984.9238891602"/>
			<point x="1070.8637695312" y="1013.8858642578"/>
			<point x="1162.4057617188" y="1013.8858642578" type="curve" smooth="yes"/>
			<point x="1186.2316894531" y="1013.8858642578"/>
			<point x="1210.4239501953" y="1011.9238891602"/>
			<point x="1235" y="1008" type="curve" smooth="yes"/>
			<point x="1395" y="983"/>
			<point x="1523" y="891"/>
			<point x="1590" y="759" type="curve"/>
			<point x="1689" y="752"/>
			<point x="1777" y="712"/>
			<point x="1853" y="637" type="curve" smooth="yes"/>
			<point x="1935.6196289062" y="555.4674072266"/>
			<point x="1987.251953125" y="444.9983825684"/>
			<point x="1987.251953125" y="300.3661804199" type="curve" smooth="yes"/>
			<point x="1987.251953125" y="197.3704376221"/>
			<point x="1950.6114501953" y="101.3585205078"/>
			<point x="1878" y="13" type="curve" smooth="yes"/>
			<point x="1751" y="-142"/>
			<point x="1542" y="-224"/>
			<point x="1250" y="-233" type="curve"/>
			<point x="1147" y="-250"/>
			<point x="1082" y="-277"/>
			<point x="1055" y="-313" type="curve" smooth="yes"/>
			<point x="1049" y="-321"/>
			<point x="1053" y="-331"/>
			<point x="1065" y="-343" type="curve" smooth="yes"/>
			<point x="1077" y="-355"/>
			<point x="1106" y="-367"/>
			<point x="1151" y="-380" type="curve" smooth="yes"/>
			<point x="1192.7857666016" y="-392.0714416504"/>
			<point x="1252.6785888672" y="-398.1071472168"/>
		</contour>
		<contour>
			<point x="1081.5437011719" y="212.3316955566" type="curve" smooth="yes"/>
			<point x="1081.5437011719" y="150.5697174072"/>
			<point x="1119.1337890625" y="107.8571395874"/>
			<point x="1186.4752197266" y="107.8571395874" type="curve" smooth="yes"/>
			<point x="1215.8775634766" y="107.8571395874"/>
			<point x="1249.1428222656" y="118.5714263916"/>
			<point x="1287" y="140" type="curve" smooth="yes"/>
			<point x="1363" y="183"/>
			<point x="1421" y="259"/>
			<point x="1462" y="366" type="curve"/>
			<point x="1463" y="367"/>
			<point x="1468" y="379"/>
			<point x="1479" y="404" type="curve" smooth="yes"/>
			<point x="1493.5601806641" y="438.2164001465"/>
			<point x="1505.4703369141" y="503.7026062012"/>
			<point x="1505.4703369141" y="563.0319213867" type="curve" smooth="yes"/>
			<point x="1505.4703369141" y="585.1979370117"/>
			<point x="1503.8078613281" y="606.5045776367"/>
			<point x="1500" y="625" type="curve"/>
			<point x="1386" y="605"/>
			<point x="1270" y="528"/>
			<point x="1153" y="395" type="curve"/>
			<point x="1105.7058105469" y="323.657989502"/>
			<point x="1081.5437011719" y="262.596862793"/>
		</contour>
	</outline>
</glyph>
